[
    {
        "latitude" : 48.175472,
        "longitude" : 11.592636
    },
    {
        "latitude" : 48.174697305158794,
        "longitude" : 11.594397436420127
    },
    {
        "latitude" : 48.173105538515358,
        "longitude" : 11.597461804076998
    },
    {
        "latitude" : 48.171886912665165,
        "longitude" : 11.599630880312924
    },
    {
        "latitude" : 48.171126552489802,
        "longitude" : 11.599828680372847
    },
    {
        "latitude" : 48.170100966469064,
        "longitude" : 11.599205615065177
    },
    {
        "latitude" : 48.167778693071341,
        "longitude" : 11.597467549757509
    },
    {
        "latitude" : 48.165573622913044,
        "longitude" : 11.59603113278739
    },
    {
        "latitude" : 48.16437458001851,
        "longitude" : 11.595678608153996
    },
    {
        "latitude" : 48.162899854746776,
        "longitude" : 11.596359556668693
    },
    {
        "latitude" : 48.160688319828466,
        "longitude" : 11.600248376602016
    },
    {
        "latitude" : 48.159879119368881,
        "longitude" : 11.601173467520445
    },
    {
        "latitude" : 48.15820216340682,
        "longitude" : 11.602299279861185
    },
    {
        "latitude" : 48.156982,
        "longitude" : 11.604652
    },
    {
        "latitude" : 48.156122454812326,
        "longitude" : 11.606643625431946
    },
    {
        "latitude" : 48.154953240329711,
        "longitude" : 11.60947902579781
    },
    {
        "latitude" : 48.153622806234495,
        "longitude" : 11.612319116792969
    },
    {
        "latitude" : 48.152879822811855,
        "longitude" : 11.61354070660364
    },
    {
        "latitude" : 48.151897169328961,
        "longitude" : 11.614885498272203
    },
    {
        "latitude" : 48.150923847482218,
        "longitude" : 11.615735356025914
    },
    {
        "latitude" : 48.149365740763834,
        "longitude" : 11.616203182100637
    },
    {
        "latitude" : 48.143579467977723,
        "longitude" : 11.615413862473483
    },
    {
        "latitude" : 48.140767047629637,
        "longitude" : 11.614873846294563
    },
    {
        "latitude" : 48.137792452579149,
        "longitude" : 11.614475996544408
    },
    {
        "latitude" : 48.136743613005464,
        "longitude" : 11.614659012047259
    },
    {
        "latitude" : 48.135521665634641,
        "longitude" : 11.615040178645048
    },
    {
        "latitude" : 48.132984,
        "longitude" : 11.61624
    },
    {
        "latitude" : 48.129416323499328,
        "longitude" : 11.614765859017892
    },
    {
        "latitude" : 48.128078718469574,
        "longitude" : 11.615631345220461
    },
    {
        "latitude" : 48.126502902720446,
        "longitude" : 11.617701872840255
    },
    {
        "latitude" : 48.125177092099264,
        "longitude" : 11.61994680589387
    },
    {
        "latitude" : 48.124431833385771,
        "longitude" : 11.620458358255926
    },
    {
        "latitude" : 48.123719015630122,
        "longitude" : 11.620583054940896
    },
    {
        "latitude" : 48.122154059255529,
        "longitude" : 11.620459595735733
    },
    {
        "latitude" : 48.120146872818317,
        "longitude" : 11.619867977813584
    },
    {
        "latitude" : 48.118154549543448,
        "longitude" : 11.618803426053356
    },
    {
        "latitude" : 48.115932671814406,
        "longitude" : 11.617852631072493
    },
    {
        "latitude" : 48.114392798520214,
        "longitude" : 11.617059309260382
    },
    {
        "latitude" : 48.112789462727797,
        "longitude" : 11.615681279964541
    },
    {
        "latitude" : 48.111570655961451,
        "longitude" : 11.614173865929073
    },
    {
        "latitude" : 48.110144792765155,
        "longitude" : 11.611638085277328
    },
    {
        "latitude" : 48.109370073671272,
        "longitude" : 11.609251054395047
    },
    {
        "latitude" : 48.109012732288043,
        "longitude" : 11.607586542846326
    },
    {
        "latitude" : 48.10848808805482,
        "longitude" : 11.603072540343177
    },
    {
        "latitude" : 48.108164404986994,
        "longitude" : 11.601571312715974
    },
    {
        "latitude" : 48.107221948284646,
        "longitude" : 11.597231924420761
    },
    {
        "latitude" : 48.10692465159795,
        "longitude" : 11.596489698838745
    },
    {
        "latitude" : 48.106243160850966,
        "longitude" : 11.593815934692334
    },
    {
        "latitude" : 48.105149109930089,
        "longitude" : 11.590451528623062
    },
    {
        "latitude" : 48.104841468710241,
        "longitude" : 11.588749061852077
    },
    {
        "latitude" : 48.104701137384986,
        "longitude" : 11.585859408639745
    },
    {
        "latitude" : 48.104785920686339,
        "longitude" : 11.584014227485033
    },
    {
        "latitude" : 48.104816413643604,
        "longitude" : 11.58270875299494
    },
    {
        "latitude" : 48.104912222485567,
        "longitude" : 11.582331254319488
    },
    {
        "latitude" : 48.105361101145633,
        "longitude" : 11.582040721858553
    },
    {
        "latitude" : 48.106999695213304,
        "longitude" : 11.580453724627121
    },
    {
        "latitude" : 48.107922810443959,
        "longitude" : 11.579892130615335
    },
    {
        "latitude" : 48.109692124413726,
        "longitude" : 11.578892042873454
    },
    {
        "latitude" : 48.110993167454566,
        "longitude" : 11.577687247408308
    },
    {
        "latitude" : 48.111636200964838,
        "longitude" : 11.576344931236743
    },
    {
        "latitude" : 48.112021077936056,
        "longitude" : 11.574239283633355
    },
    {
        "latitude" : 48.112056710127334,
        "longitude" : 11.573440377984811
    },
    {
        "latitude" : 48.111856301851383,
        "longitude" : 11.571377762824326
    },
    {
        "latitude" : 48.111896766406616,
        "longitude" : 11.570513707767784
    },
    {
        "latitude" : 48.11209458954005,
        "longitude" : 11.569641576635453
    },
    {
        "latitude" : 48.112253714810805,
        "longitude" : 11.569435590876042
    },
    {
        "latitude" : 48.112477532852594,
        "longitude" : 11.56906055418578
    },
    {
        "latitude" : 48.112917349684608,
        "longitude" : 11.567507580857823
    },
    {
        "latitude" : 48.113170941819398,
        "longitude" : 11.565163448056111
    },
    {
        "latitude" : 48.113123810876644,
        "longitude" : 11.563477701454945
    },
    {
        "latitude" : 48.112468884965182,
        "longitude" : 11.557680975971614
    },
    {
        "latitude" : 48.112419051802661,
        "longitude" : 11.552287687284027
    },
    {
        "latitude" : 48.112404522440301,
        "longitude" : 11.55080655805493
    },
    {
        "latitude" : 48.111958,
        "longitude" : 11.545429
    },
    {
        "latitude" : 48.111915171396049,
        "longitude" : 11.543328572955915
    },
    {
        "latitude" : 48.111035012801601,
        "longitude" : 11.54100974222492
    },
    {
        "latitude" : 48.110836889937779,
        "longitude" : 11.54027645286955
    },
    {
        "latitude" : 48.110744072272873,
        "longitude" : 11.538762233146015
    },
    {
        "latitude" : 48.110729805561846,
        "longitude" : 11.534090758805764
    },
    {
        "latitude" : 48.110621417663879,
        "longitude" : 11.533343625431948
    },
    {
        "latitude" : 48.110108915965753,
        "longitude" : 11.529434621976359
    },
    {
        "latitude" : 48.110287927749532,
        "longitude" : 11.523008495685035
    },
    {
        "latitude" : 48.110279464404023,
        "longitude" : 11.521255606306411
    },
    {
        "latitude" : 48.110150878410003,
        "longitude" : 11.519960065307668
    },
    {
        "latitude" : 48.110344938756064,
        "longitude" : 11.519507302626723
    },
    {
        "latitude" : 48.111339705397185,
        "longitude" : 11.51841790647021
    },
    {
        "latitude" : 48.111606752557698,
        "longitude" : 11.518378553213099
    },
    {
        "latitude" : 48.113554502753757,
        "longitude" : 11.517880649621086
    },
    {
        "latitude" : 48.113784000975116,
        "longitude" : 11.517101961950301
    },
    {
        "latitude" : 48.116486039777598,
        "longitude" : 11.516949592911665
    },
    {
        "latitude" : 48.117805,
        "longitude" : 11.517191
    },
    {
        "latitude" : 48.12029779215618,
        "longitude" : 11.518304507933641
    },
    {
        "latitude" : 48.121214889800797,
        "longitude" : 11.518548216598676
    },
    {
        "latitude" : 48.122888851889627,
        "longitude" : 11.519564031811825
    },
    {
        "latitude" : 48.123221517546718,
        "longitude" : 11.520171359915826
    },
    {
        "latitude" : 48.123943059779229,
        "longitude" : 11.520568378023642
    },
    {
        "latitude" : 48.125929337005466,
        "longitude" : 11.522016407779983
    },
    {
        "latitude" : 48.127341564381169,
        "longitude" : 11.523838784548017
    },
    {
        "latitude" : 48.128818129276503,
        "longitude" : 11.526366687284023
    },
    {
        "latitude" : 48.130115502535546,
        "longitude" : 11.529021005239137
    },
    {
        "latitude" : 48.131821127512204,
        "longitude" : 11.531852000878951
    },
    {
        "latitude" : 48.133129769040423,
        "longitude" : 11.533686625431949
    },
    {
        "latitude" : 48.136078876450505,
        "longitude" : 11.534364165126291
    },
    {
        "latitude" : 48.137943820005695,
        "longitude" : 11.534728505183386
    },
    {
        "latitude" : 48.139909435265238,
        "longitude" : 11.534945246296237
    },
    {
        "latitude" : 48.143039097750297,
        "longitude" : 11.534942875065729
    },
    {
        "latitude" : 48.144727592024395,
        "longitude" : 11.535290501268806
    },
    {
        "latitude" : 48.145497862763982,
        "longitude" : 11.535661708017569
    },
    {
        "latitude" : 48.146729811006971,
        "longitude" : 11.53674445715367
    },
    {
        "latitude" : 48.147470258964461,
        "longitude" : 11.536965910879324
    },
    {
        "latitude" : 48.151179718129313,
        "longitude" : 11.537267833338849
    },
    {
        "latitude" : 48.153476030197318,
        "longitude" : 11.537255501727794
    },
    {
        "latitude" : 48.154959232686018,
        "longitude" : 11.537535294503837
    },
    {
        "latitude" : 48.156423053898145,
        "longitude" : 11.537542228624915
    },
    {
        "latitude" : 48.157210648413638,
        "longitude" : 11.537494353000765
    },
    {
        "latitude" : 48.159692234083323,
        "longitude" : 11.537630796573417
    },
    {
        "latitude" : 48.166036532407958,
        "longitude" : 11.538202762958466
    },
    {
        "latitude" : 48.16992468821865,
        "longitude" : 11.538514202229987
    },
    {
        "latitude" : 48.171448181467085,
        "longitude" : 11.538789727245364
    },
    {
        "latitude" : 48.17297644770359,
        "longitude" : 11.539306285129587
    },
    {
        "latitude" : 48.175441833894418,
        "longitude" : 11.540582772049332
    },
    {
        "latitude" : 48.176159,
        "longitude" : 11.54075600345559
    },
    {
        "latitude" : 48.176125740347906,
        "longitude" : 11.544252938147922
    },
    {
        "latitude" : 48.175863480365003,
        "longitude" : 11.558140312715976
    },
    {
        "latitude" : 48.175805638191825,
        "longitude" : 11.565189804076999
    },
    {
        "latitude" : 48.176634565812932,
        "longitude" : 11.568622426149952
    },
    {
        "latitude" : 48.177717193257749,
        "longitude" : 11.57220799679256
    },
    {
        "latitude" : 48.177864913824472,
        "longitude" : 11.574526082585621
    },
    {
        "latitude" : 48.177574830479081,
        "longitude" : 11.579707684344067
    },
    {
        "latitude" : 48.177299863121661,
        "longitude" : 11.585645697650797
    },
    {
        "latitude" : 48.177337029882899,
        "longitude" : 11.58733876104179
    },
    {
        "latitude" : 48.177017323839763,
        "longitude" : 11.588485621976357
    },
    {
        "latitude" : 48.175472,
        "longitude" : 11.592636
    }
]
