[
  {
    "latitude": 51.289803827822986,
    "longitude": 12.386766239576525
  },
  {
    "latitude": 51.2886571853126,
    "longitude": 12.380541699701014
  },
  {
    "latitude": 51.28865366641341,
    "longitude": 12.380493721149051
  },
  {
    "latitude": 51.28866034333997,
    "longitude": 12.380446603727922
  },
  {
    "latitude": 51.28867645741096,
    "longitude": 12.380405701078462
  },
  {
    "latitude": 51.28870017768233,
    "longitude": 12.380375660670529
  },
  {
    "latitude": 51.29079047583193,
    "longitude": 12.378546656490705
  },
  {
    "latitude": 51.2908209567096,
    "longitude": 12.378530435834245
  },
  {
    "latitude": 51.29944525475372,
    "longitude": 12.376559609531053
  },
  {
    "latitude": 51.29944808021183,
    "longitude": 12.376559036495744
  },
  {
    "latitude": 51.30029712778082,
    "longitude": 12.376408603511285
  },
  {
    "latitude": 51.301038038802076,
    "longitude": 12.375982742660458
  },
  {
    "latitude": 51.301061084052094,
    "longitude": 12.375974744348392
  },
  {
    "latitude": 51.30258804169427,
    "longitude": 12.375773027222698
  },
  {
    "latitude": 51.3030386905327,
    "longitude": 12.375105996914193
  },
  {
    "latitude": 51.30384802368602,
    "longitude": 12.373894056354183
  },
  {
    "latitude": 51.30460805255529,
    "longitude": 12.370661456807923
  },
  {
    "latitude": 51.30452504940226,
    "longitude": 12.369567978513057
  },
  {
    "latitude": 51.30429930940006,
    "longitude": 12.369723555068877
  },
  {
    "latitude": 51.30239032707308,
    "longitude": 12.373276788410722
  },
  {
    "latitude": 51.302383734071405,
    "longitude": 12.373287814752654
  },
  {
    "latitude": 51.30146173281401,
    "longitude": 12.374674114405574
  },
  {
    "latitude": 51.30145671332255,
    "longitude": 12.374681118928928
  },
  {
    "latitude": 51.30061531234747,
    "longitude": 12.375770018141194
  },
  {
    "latitude": 51.30059546563481,
    "longitude": 12.37578949597398
  },
  {
    "latitude": 51.29979856504171,
    "longitude": 12.376359494105401
  },
  {
    "latitude": 51.29978712368295,
    "longitude": 12.376366230771007
  },
  {
    "latitude": 51.29942642353978,
    "longitude": 12.376535229766967
  },
  {
    "latitude": 51.29939770447092,
    "longitude": 12.376540937062341
  },
  {
    "latitude": 51.29936933764406,
    "longitude": 12.376531786441832
  },
  {
    "latitude": 51.299303637743336,
    "longitude": 12.376492186277245
  },
  {
    "latitude": 51.299277957364524,
    "longitude": 12.37646832768921
  },
  {
    "latitude": 51.2992585599994,
    "longitude": 12.376432412727727
  },
  {
    "latitude": 51.299247567078446,
    "longitude": 12.376388369633375
  },
  {
    "latitude": 51.29924618112458,
    "longitude": 12.376341015761314
  },
  {
    "latitude": 51.29925455371538,
    "longitude": 12.376295530495726
  },
  {
    "latitude": 51.299271768997436,
    "longitude": 12.376256888901587
  },
  {
    "latitude": 51.299295944129625,
    "longitude": 12.37622931749287
  },
  {
    "latitude": 51.30039046284841,
    "longitude": 12.37537603505293
  },
  {
    "latitude": 51.3010267274637,
    "longitude": 12.374636704914945
  },
  {
    "latitude": 51.30156736918944,
    "longitude": 12.37380699612419
  },
  {
    "latitude": 51.30354387740305,
    "longitude": 12.37016999838876
  },
  {
    "latitude": 51.30364748251754,
    "longitude": 12.369827758592063
  },
  {
    "latitude": 51.303654124645846,
    "longitude": 12.369809416316738
  },
  {
    "latitude": 51.30388949260782,
    "longitude": 12.369257976574564
  },
  {
    "latitude": 51.30430080948002,
    "longitude": 12.368105246278631
  },
  {
    "latitude": 51.30417092392564,
    "longitude": 12.363303184760735
  },
  {
    "latitude": 51.30417330162761,
    "longitude": 12.363263677056787
  },
  {
    "latitude": 51.30461580072359,
    "longitude": 12.360309682284152
  },
  {
    "latitude": 51.30462782107426,
    "longitude": 12.360264961812751
  },
  {
    "latitude": 51.304648525666906,
    "longitude": 12.360229231947311
  },
  {
    "latitude": 51.30541171323796,
    "longitude": 12.359295743423246
  },
  {
    "latitude": 51.30571336370019,
    "longitude": 12.357894109415152
  },
  {
    "latitude": 51.30548442918342,
    "longitude": 12.357204679226736
  },
  {
    "latitude": 51.30419859932255,
    "longitude": 12.35627188581163
  },
  {
    "latitude": 51.301573115755915,
    "longitude": 12.355441853592104
  },
  {
    "latitude": 51.300353196970846,
    "longitude": 12.355539363990646
  },
  {
    "latitude": 51.30032785669597,
    "longitude": 12.355535634211614
  },
  {
    "latitude": 51.3003041881241,
    "longitude": 12.355520721947686
  },
  {
    "latitude": 51.30028408933642,
    "longitude": 12.35549582316332
  },
  {
    "latitude": 51.30026917223356,
    "longitude": 12.35546293471014
  },
  {
    "latitude": 51.30026063318906,
    "longitude": 12.355424694215696
  },
  {
    "latitude": 51.29990620789246,
    "longitude": 12.352637554852457
  },
  {
    "latitude": 51.298308624849184,
    "longitude": 12.352683158016037
  },
  {
    "latitude": 51.297856879409274,
    "longitude": 12.35394152829161
  },
  {
    "latitude": 51.29783936474707,
    "longitude": 12.353976333055286
  },
  {
    "latitude": 51.29781598793375,
    "longitude": 12.354000857729723
  },
  {
    "latitude": 51.29621558677045,
    "longitude": 12.355157554001043
  },
  {
    "latitude": 51.29619067955503,
    "longitude": 12.355169007955453
  },
  {
    "latitude": 51.29616475883046,
    "longitude": 12.355168644906016
  },
  {
    "latitude": 51.29613998154622,
    "longitude": 12.355156495108506
  },
  {
    "latitude": 51.296118409590825,
    "longitude": 12.355133569597259
  },
  {
    "latitude": 51.294000112307856,
    "longitude": 12.352094968924415
  },
  {
    "latitude": 51.29398072597632,
    "longitude": 12.35205528889682
  },
  {
    "latitude": 51.293971130140925,
    "longitude": 12.352007368695258
  },
  {
    "latitude": 51.29397250709049,
    "longitude": 12.351957111730915
  },
  {
    "latitude": 51.29398468705379,
    "longitude": 12.351910709202192
  },
  {
    "latitude": 51.29440888630695,
    "longitude": 12.350861810143096
  },
  {
    "latitude": 51.294422300090616,
    "longitude": 12.350835906276968
  },
  {
    "latitude": 51.29896274701099,
    "longitude": 12.34391075956923
  },
  {
    "latitude": 51.29972972275812,
    "longitude": 12.338848575545104
  },
  {
    "latitude": 51.299741888933,
    "longitude": 12.336355761560046
  },
  {
    "latitude": 51.29971370243295,
    "longitude": 12.336044991514015
  },
  {
    "latitude": 51.29901492876434,
    "longitude": 12.3339451081182
  },
  {
    "latitude": 51.299006846304955,
    "longitude": 12.33391085535978
  },
  {
    "latitude": 51.299004465065174,
    "longitude": 12.33387445417964
  },
  {
    "latitude": 51.299033003054845,
    "longitude": 12.3319803363369
  },
  {
    "latitude": 51.29895395318115,
    "longitude": 12.332053837751364
  },
  {
    "latitude": 51.29843584364254,
    "longitude": 12.332535445203947
  },
  {
    "latitude": 51.29842794529534,
    "longitude": 12.332541974052418
  },
  {
    "latitude": 51.298155045032935,
    "longitude": 12.332740873418391
  },
  {
    "latitude": 51.29813743365581,
    "longitude": 12.332750338968664
  },
  {
    "latitude": 51.297794033508076,
    "longitude": 12.332873637958247
  },
  {
    "latitude": 51.29777182648756,
    "longitude": 12.332877082557093
  },
  {
    "latitude": 51.2974462265694,
    "longitude": 12.33286278154991
  },
  {
    "latitude": 51.29742602728321,
    "longitude": 12.332858198474995
  },
  {
    "latitude": 51.296559099273445,
    "longitude": 12.332497641703844
  },
  {
    "latitude": 51.29615914680589,
    "longitude": 12.332347992358322
  },
  {
    "latitude": 51.29568948380206,
    "longitude": 12.332226886588538
  },
  {
    "latitude": 51.294862973686406,
    "longitude": 12.332060028947522
  },
  {
    "latitude": 51.29359381106673,
    "longitude": 12.33190281274212
  },
  {
    "latitude": 51.29194718439517,
    "longitude": 12.331802915204952
  },
  {
    "latitude": 51.2919370655061,
    "longitude": 12.331801383841208
  },
  {
    "latitude": 51.29149176562587,
    "longitude": 12.33169318252013
  },
  {
    "latitude": 51.29147410109694,
    "longitude": 12.331685902296538
  },
  {
    "latitude": 51.291080501403705,
    "longitude": 12.331453501331284
  },
  {
    "latitude": 51.291068570978645,
    "longitude": 12.33144483053945
  },
  {
    "latitude": 51.290402671639505,
    "longitude": 12.330863829322755
  },
  {
    "latitude": 51.290394442319986,
    "longitude": 12.330855701635413
  },
  {
    "latitude": 51.28998354420449,
    "longitude": 12.330399291271062
  },
  {
    "latitude": 51.289827757694454,
    "longitude": 12.33023415320631
  },
  {
    "latitude": 51.289822296419885,
    "longitude": 12.330226141186518
  },
  {
    "latitude": 51.28981614869208,
    "longitude": 12.330219513613311
  },
  {
    "latitude": 51.28940894931262,
    "longitude": 12.329612713552224
  },
  {
    "latitude": 51.2893042324322,
    "longitude": 12.329456588188451
  },
  {
    "latitude": 51.28930356843408,
    "longitude": 12.329455588185919
  },
  {
    "latitude": 51.28911586869321,
    "longitude": 12.329169988164255
  },
  {
    "latitude": 51.28911586835654,
    "longitude": 12.329169987350866
  },
  {
    "latitude": 51.28911586783383,
    "longitude": 12.329169986753541
  },
  {
    "latitude": 51.28898626793208,
    "longitude": 12.328972786742769
  },
  {
    "latitude": 51.288983142552006,
    "longitude": 12.328967790903878
  },
  {
    "latitude": 51.28875094288941,
    "longitude": 12.328577890991504
  },
  {
    "latitude": 51.288746100063044,
    "longitude": 12.328569062096342
  },
  {
    "latitude": 51.28859805569314,
    "longitude": 12.328275760836778
  },
  {
    "latitude": 51.288347330346774,
    "longitude": 12.327802034974999
  },
  {
    "latitude": 51.28833274239409,
    "longitude": 12.32776352159175
  },
  {
    "latitude": 51.288232842573144,
    "longitude": 12.327371222204182
  },
  {
    "latitude": 51.288228939262424,
    "longitude": 12.327352168602431
  },
  {
    "latitude": 51.288131539445736,
    "longitude": 12.326732969720101
  },
  {
    "latitude": 51.28812985179088,
    "longitude": 12.326719557693087
  },
  {
    "latitude": 51.2880516358273,
    "longitude": 12.325895919999398
  },
  {
    "latitude": 51.28796259169186,
    "longitude": 12.325430763674863
  },
  {
    "latitude": 51.28790140675854,
    "longitude": 12.325367223273153
  },
  {
    "latitude": 51.28775160994586,
    "longitude": 12.325386761514244
  },
  {
    "latitude": 51.28651198085295,
    "longitude": 12.325813968858116
  },
  {
    "latitude": 51.28649709886114,
    "longitude": 12.325817052946462
  },
  {
    "latitude": 51.286378998918174,
    "longitude": 12.32582565257669
  },
  {
    "latitude": 51.28635475079286,
    "longitude": 12.325822152897123
  },
  {
    "latitude": 51.28633198191414,
    "longitude": 12.32580840138723
  },
  {
    "latitude": 51.28621328199257,
    "longitude": 12.325705501152525
  },
  {
    "latitude": 51.286212188394714,
    "longitude": 12.325704537374074
  },
  {
    "latitude": 51.286116188545755,
    "longitude": 12.325618537210259
  },
  {
    "latitude": 51.286085765017,
    "longitude": 12.325573882753183
  },
  {
    "latitude": 51.2860421650642,
    "longitude": 12.325471082843823
  },
  {
    "latitude": 51.28602787946825,
    "longitude": 12.325413561845545
  },
  {
    "latitude": 51.286009679470034,
    "longitude": 12.325233162194433
  },
  {
    "latitude": 51.286008541762286,
    "longitude": 12.325211597645652
  },
  {
    "latitude": 51.28600764194828,
    "longitude": 12.32503992514192
  },
  {
    "latitude": 51.285994624705694,
    "longitude": 12.322669094079691
  },
  {
    "latitude": 51.28595794517581,
    "longitude": 12.322404898855282
  },
  {
    "latitude": 51.28589562928044,
    "longitude": 12.322271983888488
  },
  {
    "latitude": 51.285772535578324,
    "longitude": 12.322111707079259
  },
  {
    "latitude": 51.285629783327416,
    "longitude": 12.322039988667692
  },
  {
    "latitude": 51.28549143739082,
    "longitude": 12.322118210955534
  },
  {
    "latitude": 51.28545495357241,
    "longitude": 12.322227041460879
  },
  {
    "latitude": 51.28516465869709,
    "longitude": 12.323093525596262
  },
  {
    "latitude": 51.28515017064719,
    "longitude": 12.32312532807965
  },
  {
    "latitude": 51.28505947053916,
    "longitude": 12.323275728090874
  },
  {
    "latitude": 51.28502949181781,
    "longitude": 12.323308521409526
  },
  {
    "latitude": 51.284928391728315,
    "longitude": 12.32337622116321
  },
  {
    "latitude": 51.284910606735274,
    "longitude": 12.323384807557746
  },
  {
    "latitude": 51.28454880661739,
    "longitude": 12.323496006473711
  },
  {
    "latitude": 51.28453470394144,
    "longitude": 12.32349852127442
  },
  {
    "latitude": 51.284342703915655,
    "longitude": 12.323508420681081
  },
  {
    "latitude": 51.28431374986091,
    "longitude": 12.323502342327293
  },
  {
    "latitude": 51.28414604998685,
    "longitude": 12.323421341894004
  },
  {
    "latitude": 51.28412957486225,
    "longitude": 12.323410434142504
  },
  {
    "latitude": 51.283515754162096,
    "longitude": 12.322884635977864
  },
  {
    "latitude": 51.283433681280734,
    "longitude": 12.322862779358784
  },
  {
    "latitude": 51.28335673309987,
    "longitude": 12.322934529714145
  },
  {
    "latitude": 51.28331475217496,
    "longitude": 12.323074205848837
  },
  {
    "latitude": 51.283321332918526,
    "longitude": 12.323194829657023
  },
  {
    "latitude": 51.283621258505484,
    "longitude": 12.32496727182115
  },
  {
    "latitude": 51.28362302118235,
    "longitude": 12.324979946821282
  },
  {
    "latitude": 51.2836606212631,
    "longitude": 12.325323247463922
  },
  {
    "latitude": 51.28365909561987,
    "longitude": 12.325383797397707
  },
  {
    "latitude": 51.283621495552055,
    "longitude": 12.325615497798127
  },
  {
    "latitude": 51.283608863454575,
    "longitude": 12.325660046079308
  },
  {
    "latitude": 51.28351756329841,
    "longitude": 12.325874646255407
  },
  {
    "latitude": 51.28351372772877,
    "longitude": 12.325882996016063
  },
  {
    "latitude": 51.28330972736956,
    "longitude": 12.32629499622266
  },
  {
    "latitude": 51.2833081613716,
    "longitude": 12.326298070578437
  },
  {
    "latitude": 51.28314176108562,
    "longitude": 12.326615670696343
  },
  {
    "latitude": 51.28312877231901,
    "longitude": 12.326635899871164
  },
  {
    "latitude": 51.282946272039254,
    "longitude": 12.326867599683514
  },
  {
    "latitude": 51.28293055201807,
    "longitude": 12.326883611427693
  },
  {
    "latitude": 51.282839551862466,
    "longitude": 12.326956311227255
  },
  {
    "latitude": 51.28280982127366,
    "longitude": 12.326970504983873
  },
  {
    "latitude": 51.28259492121993,
    "longitude": 12.327010904312
  },
  {
    "latitude": 51.28256469653671,
    "longitude": 12.327008402957313
  },
  {
    "latitude": 51.28239279664363,
    "longitude": 12.326946802472502
  },
  {
    "latitude": 51.282362081027685,
    "longitude": 12.32692560990908
  },
  {
    "latitude": 51.28224948118199,
    "longitude": 12.326803909765509
  },
  {
    "latitude": 51.28224062569458,
    "longitude": 12.32679299595376
  },
  {
    "latitude": 51.28187532618724,
    "longitude": 12.326281795792934
  },
  {
    "latitude": 51.28186360606662,
    "longitude": 12.326261943671092
  },
  {
    "latitude": 51.281799806154545,
    "longitude": 12.326130843749626
  },
  {
    "latitude": 51.2817886401717,
    "longitude": 12.326101038474484
  },
  {
    "latitude": 51.28176144019104,
    "longitude": 12.326003138620127
  },
  {
    "latitude": 51.28175555911308,
    "longitude": 12.325973795772166
  },
  {
    "latitude": 51.281727459110385,
    "longitude": 12.325754596174432
  },
  {
    "latitude": 51.2817267847218,
    "longitude": 12.325748712218843
  },
  {
    "latitude": 51.281693442183325,
    "longitude": 12.325419031907915
  },
  {
    "latitude": 51.28095715095828,
    "longitude": 12.323681873093864
  },
  {
    "latitude": 51.280829915818295,
    "longitude": 12.323483440528097
  },
  {
    "latitude": 51.280651829445404,
    "longitude": 12.323396716233896
  },
  {
    "latitude": 51.280276478354125,
    "longitude": 12.323596697129924
  },
  {
    "latitude": 51.28026130107155,
    "longitude": 12.323602504448218
  },
  {
    "latitude": 51.280122601023564,
    "longitude": 12.323635604036285
  },
  {
    "latitude": 51.28009493343161,
    "longitude": 12.323635339358136
  },
  {
    "latitude": 51.27996133347833,
    "longitude": 12.323600838958631
  },
  {
    "latitude": 51.27993840856895,
    "longitude": 12.323589761766252
  },
  {
    "latitude": 51.279918133541344,
    "longitude": 12.323569421030237
  },
  {
    "latitude": 51.27985363366439,
    "longitude": 12.32348362099251
  },
  {
    "latitude": 51.279833408836325,
    "longitude": 12.32344532684183
  },
  {
    "latitude": 51.27977160890934,
    "longitude": 12.323274927041755
  },
  {
    "latitude": 51.27976349295737,
    "longitude": 12.323245236900778
  },
  {
    "latitude": 51.279705692998334,
    "longitude": 12.322944937423296
  },
  {
    "latitude": 51.279701819409944,
    "longitude": 12.322896821132355
  },
  {
    "latitude": 51.279755244148795,
    "longitude": 12.320890158863653
  },
  {
    "latitude": 51.27973068689567,
    "longitude": 12.320506534396058
  },
  {
    "latitude": 51.27970629625765,
    "longitude": 12.320355090045663
  },
  {
    "latitude": 51.279684417055236,
    "longitude": 12.32023015427587
  },
  {
    "latitude": 51.27961360252664,
    "longitude": 12.320114187863775
  },
  {
    "latitude": 51.279522979385206,
    "longitude": 12.320028989650663
  },
  {
    "latitude": 51.27931484133375,
    "longitude": 12.320000676733041
  },
  {
    "latitude": 51.27903547898846,
    "longitude": 12.320103490919669
  },
  {
    "latitude": 51.278722125627645,
    "longitude": 12.32030108099909
  },
  {
    "latitude": 51.27855320307799,
    "longitude": 12.320435256010477
  },
  {
    "latitude": 51.278417207038856,
    "longitude": 12.320565251837275
  },
  {
    "latitude": 51.27797766522918,
    "longitude": 12.32108553880032
  },
  {
    "latitude": 51.277970210118035,
    "longitude": 12.321093475508704
  },
  {
    "latitude": 51.27774380991256,
    "longitude": 12.321309275101628
  },
  {
    "latitude": 51.27770638458673,
    "longitude": 12.321328904273509
  },
  {
    "latitude": 51.27749258460569,
    "longitude": 12.321362003608986
  },
  {
    "latitude": 51.277475290706796,
    "longitude": 12.32136201522564
  },
  {
    "latitude": 51.277259590796604,
    "longitude": 12.321328914580691
  },
  {
    "latitude": 51.27723124470031,
    "longitude": 12.321316897365232
  },
  {
    "latitude": 51.27669663126709,
    "longitude": 12.320932340610037
  },
  {
    "latitude": 51.27604577654207,
    "longitude": 12.32053223511131
  },
  {
    "latitude": 51.27574637070074,
    "longitude": 12.32047529138518
  },
  {
    "latitude": 51.27544519144934,
    "longitude": 12.32043123189844
  },
  {
    "latitude": 51.275089050827994,
    "longitude": 12.320506115606786
  },
  {
    "latitude": 51.27482835215141,
    "longitude": 12.320561893134965
  },
  {
    "latitude": 51.27481059834013,
    "longitude": 12.320562867136053
  },
  {
    "latitude": 51.274250198510046,
    "longitude": 12.320505065407197
  },
  {
    "latitude": 51.274234325810646,
    "longitude": 12.320501134654414
  },
  {
    "latitude": 51.273617649209854,
    "longitude": 12.320256792980295
  },
  {
    "latitude": 51.27340490036277,
    "longitude": 12.320192252724812
  },
  {
    "latitude": 51.272664050994976,
    "longitude": 12.320103605156618
  },
  {
    "latitude": 51.27241913886656,
    "longitude": 12.32011420581432
  },
  {
    "latitude": 51.272387691174345,
    "longitude": 12.320106588740735
  },
  {
    "latitude": 51.272116791332465,
    "longitude": 12.31995928804312
  },
  {
    "latitude": 51.272103138369964,
    "longitude": 12.31994978432356
  },
  {
    "latitude": 51.27129223914021,
    "longitude": 12.319252482828054
  },
  {
    "latitude": 51.27128296945876,
    "longitude": 12.319243312305044
  },
  {
    "latitude": 51.27050047033606,
    "longitude": 12.318360011391963
  },
  {
    "latitude": 51.27049556904677,
    "longitude": 12.318354066674795
  },
  {
    "latitude": 51.27022226943717,
    "longitude": 12.317998366492919
  },
  {
    "latitude": 51.26959766577896,
    "longitude": 12.317185360346784
  },
  {
    "latitude": 51.269589040501785,
    "longitude": 12.317172541136388
  },
  {
    "latitude": 51.26872994172059,
    "longitude": 12.315716441491027
  },
  {
    "latitude": 51.268726901638864,
    "longitude": 12.315711019594831
  },
  {
    "latitude": 51.267919512183774,
    "longitude": 12.31419536064746
  },
  {
    "latitude": 51.267231055492736,
    "longitude": 12.313261213468602
  },
  {
    "latitude": 51.26631135782111,
    "longitude": 12.312610456534394
  },
  {
    "latitude": 51.26612735171275,
    "longitude": 12.312537151979436
  },
  {
    "latitude": 51.265899363735336,
    "longitude": 12.31249576031355
  },
  {
    "latitude": 51.26559745192373,
    "longitude": 12.312467371983084
  },
  {
    "latitude": 51.265380102724166,
    "longitude": 12.312461968930158
  },
  {
    "latitude": 51.2650469306202,
    "longitude": 12.312524847168905
  },
  {
    "latitude": 51.26374708760563,
    "longitude": 12.312844160647924
  },
  {
    "latitude": 51.263739849856854,
    "longitude": 12.312845462535865
  },
  {
    "latitude": 51.26327254974888,
    "longitude": 12.312899061089677
  },
  {
    "latitude": 51.263262954434154,
    "longitude": 12.312899342722504
  },
  {
    "latitude": 51.26286994249336,
    "longitude": 12.312877402245933
  },
  {
    "latitude": 51.26234143109019,
    "longitude": 12.312868319304926
  },
  {
    "latitude": 51.26233351091554,
    "longitude": 12.31286762516538
  },
  {
    "latitude": 51.261934611007966,
    "longitude": 12.312804423956909
  },
  {
    "latitude": 51.26193215140115,
    "longitude": 12.31280397965321
  },
  {
    "latitude": 51.26172565146924,
    "longitude": 12.312762079034595
  },
  {
    "latitude": 51.26172395580898,
    "longitude": 12.312761708778824
  },
  {
    "latitude": 51.261374582970845,
    "longitude": 12.312680014070432
  },
  {
    "latitude": 51.2613076100978,
    "longitude": 12.312664420172407
  },
  {
    "latitude": 51.261237044141126,
    "longitude": 12.312647904558629
  },
  {
    "latitude": 51.26122744682188,
    "longitude": 12.312644798717178
  },
  {
    "latitude": 51.26072694708297,
    "longitude": 12.312436997338951
  },
  {
    "latitude": 51.26072029537468,
    "longitude": 12.31243379313016
  },
  {
    "latitude": 51.26037089558659,
    "longitude": 12.31224169224855
  },
  {
    "latitude": 51.260358840563974,
    "longitude": 12.312233450287307
  },
  {
    "latitude": 51.25967164113666,
    "longitude": 12.311665648954657
  },
  {
    "latitude": 51.259661734875486,
    "longitude": 12.311656127218104
  },
  {
    "latitude": 51.25934033520992,
    "longitude": 12.311300326819904
  },
  {
    "latitude": 51.25933409621998,
    "longitude": 12.311292756205974
  },
  {
    "latitude": 51.25894589675153,
    "longitude": 12.3107775559744
  },
  {
    "latitude": 51.25893842146847,
    "longitude": 12.310766427789249
  },
  {
    "latitude": 51.25857842192633,
    "longitude": 12.310165827910119
  },
  {
    "latitude": 51.258572202310845,
    "longitude": 12.31015428119017
  },
  {
    "latitude": 51.25819680293303,
    "longitude": 12.30937738174112
  },
  {
    "latitude": 51.258189338913475,
    "longitude": 12.309359242535615
  },
  {
    "latitude": 51.257836039478406,
    "longitude": 12.308339843810598
  },
  {
    "latitude": 51.257830819057375,
    "longitude": 12.308321976393602
  },
  {
    "latitude": 51.2575834194585,
    "longitude": 12.307296078026443
  },
  {
    "latitude": 51.25758134193363,
    "longitude": 12.307286455190715
  },
  {
    "latitude": 51.25737344223146,
    "longitude": 12.306199457067576
  },
  {
    "latitude": 51.25737124418675,
    "longitude": 12.306185477889281
  },
  {
    "latitude": 51.25719464448404,
    "longitude": 12.304762080542117
  },
  {
    "latitude": 51.25719380539276,
    "longitude": 12.304754154921486
  },
  {
    "latitude": 51.257069105517864,
    "longitude": 12.30333465762666
  },
  {
    "latitude": 51.25706879731811,
    "longitude": 12.303330760566805
  },
  {
    "latitude": 51.25688823277918,
    "longitude": 12.300765206548627
  },
  {
    "latitude": 51.25645796669454,
    "longitude": 12.296480434438127
  },
  {
    "latitude": 51.256457966622136,
    "longitude": 12.296480385950396
  },
  {
    "latitude": 51.25645795721768,
    "longitude": 12.29648033983367
  },
  {
    "latitude": 51.25645794369992,
    "longitude": 12.296457984153351
  },
  {
    "latitude": 51.256457920732856,
    "longitude": 12.296435628470421
  },
  {
    "latitude": 51.25645793003971,
    "longitude": 12.296435582317088
  },
  {
    "latitude": 51.25645793005704,
    "longitude": 12.296435533835782
  },
  {
    "latitude": 51.25646225202816,
    "longitude": 12.296414265624774
  },
  {
    "latitude": 51.2564665650406,
    "longitude": 12.296392992783261
  },
  {
    "latitude": 51.2564665828791,
    "longitude": 12.296392953505304
  },
  {
    "latitude": 51.256466592275295,
    "longitude": 12.296392907372688
  },
  {
    "latitude": 51.25647482665072,
    "longitude": 12.296374808518694
  },
  {
    "latitude": 51.25648305344557,
    "longitude": 12.296356700858427
  },
  {
    "latitude": 51.256483078088515,
    "longitude": 12.296356672288772
  },
  {
    "latitude": 51.25648309592658,
    "longitude": 12.296356633025093
  },
  {
    "latitude": 51.258752344351414,
    "longitude": 12.29273295023933
  },
  {
    "latitude": 51.260774603389144,
    "longitude": 12.287766423684303
  },
  {
    "latitude": 51.2621466251722,
    "longitude": 12.282469697557945
  },
  {
    "latitude": 51.263124712761744,
    "longitude": 12.276803602636818
  },
  {
    "latitude": 51.263342129433,
    "longitude": 12.272524143361244
  },
  {
    "latitude": 51.26334750219121,
    "longitude": 12.272485645927317
  },
  {
    "latitude": 51.26335925839061,
    "longitude": 12.272450943305394
  },
  {
    "latitude": 51.26337650665652,
    "longitude": 12.27242266643082
  },
  {
    "latitude": 51.26436615783895,
    "longitude": 12.271194959423052
  },
  {
    "latitude": 51.26402657045191,
    "longitude": 12.269128902555337
  },
  {
    "latitude": 51.26402395273349,
    "longitude": 12.26908059096313
  },
  {
    "latitude": 51.264031598260004,
    "longitude": 12.269033655745725
  },
  {
    "latitude": 51.264048630573065,
    "longitude": 12.268993476194002
  },
  {
    "latitude": 51.264073097709286,
    "longitude": 12.268964657378588
  },
  {
    "latitude": 51.265368496584784,
    "longitude": 12.267925354592025
  },
  {
    "latitude": 51.26539157729563,
    "longitude": 12.267912746828685
  },
  {
    "latitude": 51.26933877605116,
    "longitude": 12.266676635105537
  },
  {
    "latitude": 51.269341430434665,
    "longitude": 12.266675869564779
  },
  {
    "latitude": 51.27474028528842,
    "longitude": 12.265251690174301
  },
  {
    "latitude": 51.27623387134311,
    "longitude": 12.263984030908453
  },
  {
    "latitude": 51.27626097148887,
    "longitude": 12.26396927118653
  },
  {
    "latitude": 51.276289607878184,
    "longitude": 12.263968854155422
  },
  {
    "latitude": 51.27631687260499,
    "longitude": 12.263982822233235
  },
  {
    "latitude": 51.276339996486996,
    "longitude": 12.264009756860533
  },
  {
    "latitude": 51.27635663127316,
    "longitude": 12.264046922677892
  },
  {
    "latitude": 51.27636508755817,
    "longitude": 12.264090545214676
  },
  {
    "latitude": 51.27712295469525,
    "longitude": 12.272685264254104
  },
  {
    "latitude": 51.27799001581908,
    "longitude": 12.27734015844571
  },
  {
    "latitude": 51.2790275011965,
    "longitude": 12.279531145891529
  },
  {
    "latitude": 51.280741277045855,
    "longitude": 12.281405710788754
  },
  {
    "latitude": 51.28397837612322,
    "longitude": 12.283463290096678
  },
  {
    "latitude": 51.28398274652772,
    "longitude": 12.283466284389506
  },
  {
    "latitude": 51.28692904902842,
    "longitude": 12.285634078048565
  },
  {
    "latitude": 51.28695080534571,
    "longitude": 12.28565667423883
  },
  {
    "latitude": 51.289101808078804,
    "longitude": 12.288679073359868
  },
  {
    "latitude": 51.28911733406744,
    "longitude": 12.288707498518633
  },
  {
    "latitude": 51.29098965991273,
    "longitude": 12.293219036124952
  },
  {
    "latitude": 51.291360123235876,
    "longitude": 12.29314499922746
  },
  {
    "latitude": 51.29118322923219,
    "longitude": 12.291711578179848
  },
  {
    "latitude": 51.29118206362829,
    "longitude": 12.29166841484777
  },
  {
    "latitude": 51.29118901614228,
    "longitude": 12.291626658661892
  },
  {
    "latitude": 51.29120345494593,
    "longitude": 12.291590104091464
  },
  {
    "latitude": 51.29122406816093,
    "longitude": 12.2915620728934
  },
  {
    "latitude": 51.29124898236092,
    "longitude": 12.291545112316836
  },
  {
    "latitude": 51.29309065689941,
    "longitude": 12.290788421424395
  },
  {
    "latitude": 51.29335846950859,
    "longitude": 12.290087699964474
  },
  {
    "latitude": 51.29338155223997,
    "longitude": 12.29004731802577
  },
  {
    "latitude": 51.29341243340689,
    "longitude": 12.290023650283887
  },
  {
    "latitude": 51.30018493042136,
    "longitude": 12.287194330942974
  },
  {
    "latitude": 51.3002151293219,
    "longitude": 12.287190143735161
  },
  {
    "latitude": 51.300244482853806,
    "longitude": 12.287202211814995
  },
  {
    "latitude": 51.300269650977356,
    "longitude": 12.287229162030405
  },
  {
    "latitude": 51.30028776976916,
    "longitude": 12.287267927780741
  },
  {
    "latitude": 51.30029677759363,
    "longitude": 12.287314098000449
  },
  {
    "latitude": 51.3003366276236,
    "longitude": 12.287791982505684
  },
  {
    "latitude": 51.30303390763701,
    "longitude": 12.287483805237548
  },
  {
    "latitude": 51.303327873530655,
    "longitude": 12.283781200426247
  },
  {
    "latitude": 51.301601569602184,
    "longitude": 12.275984953105436
  },
  {
    "latitude": 51.30160054058672,
    "longitude": 12.275980024206808
  },
  {
    "latitude": 51.29884734523798,
    "longitude": 12.261954548275106
  },
  {
    "latitude": 51.29884323950275,
    "longitude": 12.261912851318087
  },
  {
    "latitude": 51.29884692486304,
    "longitude": 12.261871054543136
  },
  {
    "latitude": 51.29885808178068,
    "longitude": 12.261832781810623
  },
  {
    "latitude": 51.29887574303966,
    "longitude": 12.261801351471133
  },
  {
    "latitude": 51.29889837723706,
    "longitude": 12.261779488621901
  },
  {
    "latitude": 51.29892402202077,
    "longitude": 12.26176908884078
  },
  {
    "latitude": 51.302928012403974,
    "longitude": 12.261120517095259
  },
  {
    "latitude": 51.303571411355755,
    "longitude": 12.260388294490706
  },
  {
    "latitude": 51.303595651845114,
    "longitude": 12.260368750366068
  },
  {
    "latitude": 51.30362244542243,
    "longitude": 12.26036165267596
  },
  {
    "latitude": 51.303649344415376,
    "longitude": 12.260367649778395
  },
  {
    "latitude": 51.30367389175602,
    "longitude": 12.260386193888806
  },
  {
    "latitude": 51.30427800148718,
    "longitude": 12.261037024723882
  },
  {
    "latitude": 51.30655094010873,
    "longitude": 12.261252885140117
  },
  {
    "latitude": 51.3065787499503,
    "longitude": 12.26126274330991
  },
  {
    "latitude": 51.30660322821092,
    "longitude": 12.261285993628094
  },
  {
    "latitude": 51.30662191488663,
    "longitude": 12.261320299463351
  },
  {
    "latitude": 51.30663293208112,
    "longitude": 12.261362213154603
  },
  {
    "latitude": 51.30765478261353,
    "longitude": 12.268086542665769
  },
  {
    "latitude": 51.30975900436817,
    "longitude": 12.273895258963238
  },
  {
    "latitude": 51.30976668673025,
    "longitude": 12.273922803695566
  },
  {
    "latitude": 51.310897264854326,
    "longitude": 12.279490537639658
  },
  {
    "latitude": 51.31152783052805,
    "longitude": 12.281562878273553
  },
  {
    "latitude": 51.31508096246544,
    "longitude": 12.279989031364794
  },
  {
    "latitude": 51.315082725244785,
    "longitude": 12.27998828114901
  },
  {
    "latitude": 51.31836045473552,
    "longitude": 12.278649966632603
  },
  {
    "latitude": 51.3208346005972,
    "longitude": 12.276813466435287
  },
  {
    "latitude": 51.32084162406536,
    "longitude": 12.276808818927718
  },
  {
    "latitude": 51.32491142152178,
    "longitude": 12.27443230833505
  },
  {
    "latitude": 51.32491154734828,
    "longitude": 12.274432234997587
  },
  {
    "latitude": 51.32649518660542,
    "longitude": 12.27351164162394
  },
  {
    "latitude": 51.32653128469938,
    "longitude": 12.273154553356793
  },
  {
    "latitude": 51.326539035727805,
    "longitude": 12.273115170602443
  },
  {
    "latitude": 51.32655349330222,
    "longitude": 12.273080942465675
  },
  {
    "latitude": 51.32707806773231,
    "longitude": 12.272159502569641
  },
  {
    "latitude": 51.32641319501011,
    "longitude": 12.26561115101716
  },
  {
    "latitude": 51.326412847948795,
    "longitude": 12.265568975349977
  },
  {
    "latitude": 51.32642020212279,
    "longitude": 12.265528462237148
  },
  {
    "latitude": 51.32643462157271,
    "longitude": 12.265493115250537
  },
  {
    "latitude": 51.32645485926395,
    "longitude": 12.265465991217496
  },
  {
    "latitude": 51.3264791651186,
    "longitude": 12.265449435850016
  },
  {
    "latitude": 51.32650543703732,
    "longitude": 12.265444880859052
  },
  {
    "latitude": 51.32653140308569,
    "longitude": 12.265452720191606
  },
  {
    "latitude": 51.32870203617281,
    "longitude": 12.266656992949663
  },
  {
    "latitude": 51.332872290341825,
    "longitude": 12.26540977093876
  },
  {
    "latitude": 51.335016530767646,
    "longitude": 12.264723343440801
  },
  {
    "latitude": 51.33502566433355,
    "longitude": 12.264721191626698
  },
  {
    "latitude": 51.34173522659173,
    "longitude": 12.263699037394364
  },
  {
    "latitude": 51.34590908950861,
    "longitude": 12.262997297853202
  },
  {
    "latitude": 51.34593628788027,
    "longitude": 12.262999348142845
  },
  {
    "latitude": 51.345961853106154,
    "longitude": 12.263014311834324
  },
  {
    "latitude": 51.34598343805915,
    "longitude": 12.263040815100926
  },
  {
    "latitude": 51.34599906103034,
    "longitude": 12.263076424657912
  },
  {
    "latitude": 51.34600728750224,
    "longitude": 12.263117871148928
  },
  {
    "latitude": 51.346007362286336,
    "longitude": 12.263161349329728
  },
  {
    "latitude": 51.34560284937549,
    "longitude": 12.267453460771112
  },
  {
    "latitude": 51.345747638940935,
    "longitude": 12.267788815743753
  },
  {
    "latitude": 51.34602184483353,
    "longitude": 12.267338114832437
  },
  {
    "latitude": 51.34604603341522,
    "longitude": 12.267309820382582
  },
  {
    "latitude": 51.346074705104776,
    "longitude": 12.267295808079082
  },
  {
    "latitude": 51.346104667679036,
    "longitude": 12.267297638024418
  },
  {
    "latitude": 51.34680406802419,
    "longitude": 12.267530836005555
  },
  {
    "latitude": 51.34683366125789,
    "longitude": 12.267549952973987
  },
  {
    "latitude": 51.34685720185667,
    "longitude": 12.26758438386641
  },
  {
    "latitude": 51.34687171904158,
    "longitude": 12.267629783501128
  },
  {
    "latitude": 51.34722887563822,
    "longitude": 12.26951674839204
  },
  {
    "latitude": 51.34827415183859,
    "longitude": 12.269151420559055
  },
  {
    "latitude": 51.34865927744037,
    "longitude": 12.268794482496874
  },
  {
    "latitude": 51.34786749683739,
    "longitude": 12.262838403641936
  },
  {
    "latitude": 51.34786580797886,
    "longitude": 12.262797468677421
  },
  {
    "latitude": 51.34788957803896,
    "longitude": 12.262309603887237
  },
  {
    "latitude": 51.34780467618355,
    "longitude": 12.26146617470907
  },
  {
    "latitude": 51.34780355951332,
    "longitude": 12.261440202030801
  },
  {
    "latitude": 51.34786795927155,
    "longitude": 12.256820411054317
  },
  {
    "latitude": 51.34787327325047,
    "longitude": 12.25677488737925
  },
  {
    "latitude": 51.34788738992106,
    "longitude": 12.256734436631064
  },
  {
    "latitude": 51.34790883901032,
    "longitude": 12.25670327133909
  },
  {
    "latitude": 51.34851577478089,
    "longitude": 12.256073533621198
  },
  {
    "latitude": 51.34797111725455,
    "longitude": 12.253063923688575
  },
  {
    "latitude": 51.34727733099816,
    "longitude": 12.252814080654849
  },
  {
    "latitude": 51.34724894085976,
    "longitude": 12.252795249513419
  },
  {
    "latitude": 51.34722618689892,
    "longitude": 12.25276224015197
  },
  {
    "latitude": 51.34721173187682,
    "longitude": 12.252718915685225
  },
  {
    "latitude": 51.347207267619815,
    "longitude": 12.252670346419412
  },
  {
    "latitude": 51.347280567327985,
    "longitude": 12.248192055162534
  },
  {
    "latitude": 51.34733776732502,
    "longitude": 12.244702149073817
  },
  {
    "latitude": 51.347342243591044,
    "longitude": 12.244661026038443
  },
  {
    "latitude": 51.34735394174277,
    "longitude": 12.244623699706413
  },
  {
    "latitude": 51.34737187201487,
    "longitude": 12.244593328181521
  },
  {
    "latitude": 51.34931036968116,
    "longitude": 12.242146226172839
  },
  {
    "latitude": 51.34933285578793,
    "longitude": 12.242125477786146
  },
  {
    "latitude": 51.349358118303975,
    "longitude": 12.242115864121946
  },
  {
    "latitude": 51.349384047490396,
    "longitude": 12.242118188107714
  },
  {
    "latitude": 51.35161893287036,
    "longitude": 12.242845663158063
  },
  {
    "latitude": 51.35289492005294,
    "longitude": 12.242743556734942
  },
  {
    "latitude": 51.35424521829414,
    "longitude": 12.241747508543638
  },
  {
    "latitude": 51.35427865401209,
    "longitude": 12.241734441840855
  },
  {
    "latitude": 51.35880695384618,
    "longitude": 12.241392327688468
  },
  {
    "latitude": 51.35881367603563,
    "longitude": 12.241392221865194
  },
  {
    "latitude": 51.36450887659919,
    "longitude": 12.241643004073591
  },
  {
    "latitude": 51.36453623554332,
    "longitude": 12.241651092369695
  },
  {
    "latitude": 51.36584620878376,
    "longitude": 12.242387660462647
  },
  {
    "latitude": 51.36635857765017,
    "longitude": 12.242128538368876
  },
  {
    "latitude": 51.36639102397519,
    "longitude": 12.242122095855162
  },
  {
    "latitude": 51.366422765549004,
    "longitude": 12.242134624172733
  },
  {
    "latitude": 51.36773320671631,
    "longitude": 12.243082512530762
  },
  {
    "latitude": 51.370904881396,
    "longitude": 12.243574914246507
  },
  {
    "latitude": 51.37182272128932,
    "longitude": 12.241953331176841
  },
  {
    "latitude": 51.37200029163875,
    "longitude": 12.23911366670715
  },
  {
    "latitude": 51.371944302302346,
    "longitude": 12.23795273131624
  },
  {
    "latitude": 51.37194600938266,
    "longitude": 12.237911782084932
  },
  {
    "latitude": 51.37195489770385,
    "longitude": 12.2378732773565
  },
  {
    "latitude": 51.371970241141305,
    "longitude": 12.237840363239627
  },
  {
    "latitude": 51.37199078596243,
    "longitude": 12.237815729097573
  },
  {
    "latitude": 51.37201485351322,
    "longitude": 12.237801387689515
  },
  {
    "latitude": 51.37269305330699,
    "longitude": 12.237566385686142
  },
  {
    "latitude": 51.37271958904371,
    "longitude": 12.237563623094328
  },
  {
    "latitude": 51.372745469085146,
    "longitude": 12.237573389364824
  },
  {
    "latitude": 51.37276842711272,
    "longitude": 12.237594829287875
  },
  {
    "latitude": 51.372786452653756,
    "longitude": 12.237626065458231
  },
  {
    "latitude": 51.37279796734028,
    "longitude": 12.237664362595375
  },
  {
    "latitude": 51.37361837263138,
    "longitude": 12.241912365131444
  },
  {
    "latitude": 51.37504118918896,
    "longitude": 12.245525136605211
  },
  {
    "latitude": 51.37906353975522,
    "longitude": 12.252512190295008
  },
  {
    "latitude": 51.379076047141716,
    "longitude": 12.252539932777117
  },
  {
    "latitude": 51.38063004971089,
    "longitude": 12.257032738386124
  },
  {
    "latitude": 51.38063831972245,
    "longitude": 12.25706575295102
  },
  {
    "latitude": 51.3806412591809,
    "longitude": 12.257101002685726
  },
  {
    "latitude": 51.38065239723678,
    "longitude": 12.259239330584247
  },
  {
    "latitude": 51.3818948642992,
    "longitude": 12.259793332932968
  },
  {
    "latitude": 51.383860874255426,
    "longitude": 12.258011264938597
  },
  {
    "latitude": 51.38384974266491,
    "longitude": 12.256354943975252
  },
  {
    "latitude": 51.38385327629203,
    "longitude": 12.256313495287154
  },
  {
    "latitude": 51.38386413426476,
    "longitude": 12.256275432386014
  },
  {
    "latitude": 51.38388139533414,
    "longitude": 12.256243984809778
  },
  {
    "latitude": 51.38390359482083,
    "longitude": 12.256221820790667
  },
  {
    "latitude": 51.38392884928455,
    "longitude": 12.256210820905743
  },
  {
    "latitude": 51.38395501594695,
    "longitude": 12.256211918477494
  },
  {
    "latitude": 51.38397987452469,
    "longitude": 12.25622502041092
  },
  {
    "latitude": 51.38461077516891,
    "longitude": 12.256730519134031
  },
  {
    "latitude": 51.38463448925513,
    "longitude": 12.256758070137375
  },
  {
    "latitude": 51.38465139209958,
    "longitude": 12.256796353846601
  },
  {
    "latitude": 51.38465968452276,
    "longitude": 12.256841295226447
  },
  {
    "latitude": 51.38481158474343,
    "longitude": 12.258806899026693
  },
  {
    "latitude": 51.38481057363824,
    "longitude": 12.258852209060292
  },
  {
    "latitude": 51.38448347296381,
    "longitude": 12.261510413927057
  },
  {
    "latitude": 51.38447668974335,
    "longitude": 12.261543574052814
  },
  {
    "latitude": 51.38377508214019,
    "longitude": 12.263939298654353
  },
  {
    "latitude": 51.383950010359875,
    "longitude": 12.266094400211285
  },
  {
    "latitude": 51.3863675175005,
    "longitude": 12.266725384209437
  },
  {
    "latitude": 51.386394291453875,
    "longitude": 12.265994506792687
  },
  {
    "latitude": 51.386394407658514,
    "longitude": 12.265991779601384
  },
  {
    "latitude": 51.386817506545434,
    "longitude": 12.257278296467408
  },
  {
    "latitude": 51.38682396068561,
    "longitude": 12.257234893719488
  },
  {
    "latitude": 51.386838436673486,
    "longitude": 12.257196750112657
  },
  {
    "latitude": 51.38685953780674,
    "longitude": 12.257167546003862
  },
  {
    "latitude": 51.38688522808449,
    "longitude": 12.257150099206187
  },
  {
    "latitude": 51.386913028754,
    "longitude": 12.257146093172187
  },
  {
    "latitude": 51.38694025733414,
    "longitude": 12.257155914414911
  },
  {
    "latitude": 51.38970735944608,
    "longitude": 12.25891170779188
  },
  {
    "latitude": 51.38972660650321,
    "longitude": 12.258928525317835
  },
  {
    "latitude": 51.389742730857044,
    "longitude": 12.258952294897444
  },
  {
    "latitude": 51.3924003812151,
    "longitude": 12.263960880265172
  },
  {
    "latitude": 51.393690690250025,
    "longitude": 12.265774680807285
  },
  {
    "latitude": 51.39622258715554,
    "longitude": 12.268039122737786
  },
  {
    "latitude": 51.39723580348163,
    "longitude": 12.268107463997572
  },
  {
    "latitude": 51.39823576838115,
    "longitude": 12.265703263132822
  },
  {
    "latitude": 51.39826268270816,
    "longitude": 12.265661272257551
  },
  {
    "latitude": 51.399423181607965,
    "longitude": 12.264491870287376
  },
  {
    "latitude": 51.399450223553714,
    "longitude": 12.264473671733509
  },
  {
    "latitude": 51.39947949103162,
    "longitude": 12.264470368941302
  },
  {
    "latitude": 51.39950786398457,
    "longitude": 12.264482314012945
  },
  {
    "latitude": 51.3995323177763,
    "longitude": 12.264508233570634
  },
  {
    "latitude": 51.39955024530254,
    "longitude": 12.264545364467201
  },
  {
    "latitude": 51.39955973554595,
    "longitude": 12.264589748349472
  },
  {
    "latitude": 51.39955977670735,
    "longitude": 12.264636653642867
  },
  {
    "latitude": 51.3995503644774,
    "longitude": 12.264681079955494
  },
  {
    "latitude": 51.39635515875887,
    "longitude": 12.274243091273636
  },
  {
    "latitude": 51.39635494556114,
    "longitude": 12.27424372534377
  },
  {
    "latitude": 51.3936302452709,
    "longitude": 12.28229748378695
  },
  {
    "latitude": 51.39099835437987,
    "longitude": 12.29146593123524
  },
  {
    "latitude": 51.39054871282342,
    "longitude": 12.29454811856887
  },
  {
    "latitude": 51.39053638540212,
    "longitude": 12.294594162785684
  },
  {
    "latitude": 51.390514916290435,
    "longitude": 12.294630642431317
  },
  {
    "latitude": 51.39048691578893,
    "longitude": 12.294653121959705
  },
  {
    "latitude": 51.38900810126989,
    "longitude": 12.29535903861246
  },
  {
    "latitude": 51.38871135945436,
    "longitude": 12.295902139986211
  },
  {
    "latitude": 51.38149599762372,
    "longitude": 12.31824658500421
  },
  {
    "latitude": 51.38211866098647,
    "longitude": 12.319265147241113
  },
  {
    "latitude": 51.384943843161984,
    "longitude": 12.31443374997811
  },
  {
    "latitude": 51.384946471549796,
    "longitude": 12.314429439529535
  },
  {
    "latitude": 51.38727016836138,
    "longitude": 12.310774739071965
  },
  {
    "latitude": 51.387292471783105,
    "longitude": 12.310749080303871
  },
  {
    "latitude": 51.387318584281225,
    "longitude": 12.310735394316813
  },
  {
    "latitude": 51.38734606370842,
    "longitude": 12.310734961082204
  },
  {
    "latitude": 51.38737234006301,
    "longitude": 12.310747821159932
  },
  {
    "latitude": 51.38739495586037,
    "longitude": 12.31077277183302
  },
  {
    "latitude": 51.38741179610765,
    "longitude": 12.310807479661447
  },
  {
    "latitude": 51.38742128569889,
    "longitude": 12.310848698626234
  },
  {
    "latitude": 51.38742253725661,
    "longitude": 12.310892573805749
  },
  {
    "latitude": 51.387223536719006,
    "longitude": 12.313826779415432
  },
  {
    "latitude": 51.38721732862792,
    "longitude": 12.313865839146436
  },
  {
    "latitude": 51.38720457483525,
    "longitude": 12.31390060438115
  },
  {
    "latitude": 51.38706566478409,
    "longitude": 12.314180215573632
  },
  {
    "latitude": 51.386833360120924,
    "longitude": 12.317635208810792
  },
  {
    "latitude": 51.386941253797396,
    "longitude": 12.317625510143346
  },
  {
    "latitude": 51.38697148887773,
    "longitude": 12.317631041271946
  },
  {
    "latitude": 51.38699883498102,
    "longitude": 12.317652383989117
  },
  {
    "latitude": 51.38702015557372,
    "longitude": 12.317687090431493
  },
  {
    "latitude": 51.387033005308304,
    "longitude": 12.317731179966138
  },
  {
    "latitude": 51.38703591051211,
    "longitude": 12.317779595805614
  },
  {
    "latitude": 51.387001558424025,
    "longitude": 12.318514693934093
  },
  {
    "latitude": 51.38983226387575,
    "longitude": 12.318020843368162
  },
  {
    "latitude": 51.39058529717849,
    "longitude": 12.317807371974633
  },
  {
    "latitude": 51.39074918403216,
    "longitude": 12.31769010762547
  },
  {
    "latitude": 51.39077641682241,
    "longitude": 12.317678373511175
  },
  {
    "latitude": 51.39190301670175,
    "longitude": 12.317487270021436
  },
  {
    "latitude": 51.391904632417564,
    "longitude": 12.317487019516605
  },
  {
    "latitude": 51.39497596517471,
    "longitude": 12.317055519341695
  },
  {
    "latitude": 51.39852349790551,
    "longitude": 12.31654851784401
  },
  {
    "latitude": 51.39855271010036,
    "longitude": 12.31655200612804
  },
  {
    "latitude": 51.398579668361315,
    "longitude": 12.316570329143975
  },
  {
    "latitude": 51.39860150772672,
    "longitude": 12.316601539695183
  },
  {
    "latitude": 51.39861590729275,
    "longitude": 12.316642321043261
  },
  {
    "latitude": 51.39862133677829,
    "longitude": 12.316688339309076
  },
  {
    "latitude": 51.39887333667708,
    "longitude": 12.334527774324252
  },
  {
    "latitude": 51.39887012324909,
    "longitude": 12.334569203953553
  },
  {
    "latitude": 51.39885959420487,
    "longitude": 12.334607407101831
  },
  {
    "latitude": 51.398842638698916,
    "longitude": 12.334639157333205
  },
  {
    "latitude": 51.39684839616828,
    "longitude": 12.33742572019726
  },
  {
    "latitude": 51.39622959391112,
    "longitude": 12.33845596680306
  },
  {
    "latitude": 51.396892605084474,
    "longitude": 12.339098883942675
  },
  {
    "latitude": 51.396897091495795,
    "longitude": 12.339103531777655
  },
  {
    "latitude": 51.399268794124545,
    "longitude": 12.341724128822646
  },
  {
    "latitude": 51.40125219611417,
    "longitude": 12.343915926093981
  },
  {
    "latitude": 51.4012729703608,
    "longitude": 12.343947868337768
  },
  {
    "latitude": 51.40225197186653,
    "longitude": 12.34603346991914
  },
  {
    "latitude": 51.402264825098555,
    "longitude": 12.346071836465452
  },
  {
    "latitude": 51.402865026073066,
    "longitude": 12.348787640958982
  },
  {
    "latitude": 51.40286950747811,
    "longitude": 12.348818234373233
  },
  {
    "latitude": 51.4034493621319,
    "longitude": 12.356479654028647
  },
  {
    "latitude": 51.403627222617615,
    "longitude": 12.357215834423297
  },
  {
    "latitude": 51.403659786807864,
    "longitude": 12.357350743031024
  },
  {
    "latitude": 51.405584115411905,
    "longitude": 12.361080371686585
  },
  {
    "latitude": 51.40651971426882,
    "longitude": 12.362893567753414
  },
  {
    "latitude": 51.40652834845721,
    "longitude": 12.362913520850519
  },
  {
    "latitude": 51.40677024882583,
    "longitude": 12.363587921649334
  },
  {
    "latitude": 51.40678006811669,
    "longitude": 12.36362859233745
  },
  {
    "latitude": 51.40681076813294,
    "longitude": 12.363852192754942
  },
  {
    "latitude": 51.406958357336876,
    "longitude": 12.364928134127116
  },
  {
    "latitude": 51.40752314239432,
    "longitude": 12.364415547600743
  },
  {
    "latitude": 51.40754654656883,
    "longitude": 12.364400782275263
  },
  {
    "latitude": 51.40757159361556,
    "longitude": 12.36439697068931
  },
  {
    "latitude": 51.40759631963895,
    "longitude": 12.364404411643099
  },
  {
    "latitude": 51.409074220556775,
    "longitude": 12.365204607824896
  },
  {
    "latitude": 51.40907584157429,
    "longitude": 12.365205513199475
  },
  {
    "latitude": 51.409864542098106,
    "longitude": 12.36565961121938
  },
  {
    "latitude": 51.409888098169986,
    "longitude": 12.365679951615553
  },
  {
    "latitude": 51.40990686128256,
    "longitude": 12.365710486055711
  },
  {
    "latitude": 51.409919166050834,
    "longitude": 12.365748504289739
  },
  {
    "latitude": 51.40992392020904,
    "longitude": 12.365790631794113
  },
  {
    "latitude": 51.40992070187777,
    "longitude": 12.365833129276727
  },
  {
    "latitude": 51.40821176316138,
    "longitude": 12.375703071415245
  },
  {
    "latitude": 51.41614784456025,
    "longitude": 12.37851560034705
  },
  {
    "latitude": 51.41615692798415,
    "longitude": 12.378519630017946
  },
  {
    "latitude": 51.41651812819704,
    "longitude": 12.378713029082503
  },
  {
    "latitude": 51.41653918837562,
    "longitude": 12.378729458155329
  },
  {
    "latitude": 51.416887288775285,
    "longitude": 12.379097857680597
  },
  {
    "latitude": 51.41690223110209,
    "longitude": 12.379117696088253
  },
  {
    "latitude": 51.41713653146974,
    "longitude": 12.37950439615101
  },
  {
    "latitude": 51.41714561176367,
    "longitude": 12.379521983766338
  },
  {
    "latitude": 51.41765879271156,
    "longitude": 12.38069435498985
  },
  {
    "latitude": 51.41778115226638,
    "longitude": 12.380951597354331
  },
  {
    "latitude": 51.41809519457688,
    "longitude": 12.381303972115566
  },
  {
    "latitude": 51.41855123220227,
    "longitude": 12.38137399621285
  },
  {
    "latitude": 51.41888695137655,
    "longitude": 12.381216438450378
  },
  {
    "latitude": 51.4195969437757,
    "longitude": 12.380142104320473
  },
  {
    "latitude": 51.41961582128299,
    "longitude": 12.38012020231829
  },
  {
    "latitude": 51.41963758716275,
    "longitude": 12.380106807729891
  },
  {
    "latitude": 51.42008118691517,
    "longitude": 12.379935306425224
  },
  {
    "latitude": 51.42011356293632,
    "longitude": 12.37993241647475
  },
  {
    "latitude": 51.420712363091575,
    "longitude": 12.380053414642619
  },
  {
    "latitude": 51.42074037119648,
    "longitude": 12.380066733172985
  },
  {
    "latitude": 51.42076422663925,
    "longitude": 12.380093720552326
  },
  {
    "latitude": 51.420781407014026,
    "longitude": 12.38013152312755
  },
  {
    "latitude": 51.42079009560152,
    "longitude": 12.380176143587933
  },
  {
    "latitude": 51.420789373722904,
    "longitude": 12.38022286371404
  },
  {
    "latitude": 51.42076547367905,
    "longitude": 12.380423764078092
  },
  {
    "latitude": 51.42075630332651,
    "longitude": 12.380465077221126
  },
  {
    "latitude": 51.42073977263047,
    "longitude": 12.380500046634557
  },
  {
    "latitude": 51.42071741973922,
    "longitude": 12.380525418529942
  },
  {
    "latitude": 51.4206913244446,
    "longitude": 12.380538832127769
  },
  {
    "latitude": 51.42066391500252,
    "longitude": 12.380539039365381
  },
  {
    "latitude": 51.42011364738203,
    "longitude": 12.38040747714514
  },
  {
    "latitude": 51.419743455519246,
    "longitude": 12.380555823986068
  },
  {
    "latitude": 51.41904806750542,
    "longitude": 12.38156760605885
  },
  {
    "latitude": 51.419013746374375,
    "longitude": 12.381598794905726
  },
  {
    "latitude": 51.41860874621973,
    "longitude": 12.381795793784535
  },
  {
    "latitude": 51.41857508155933,
    "longitude": 12.38180150818025
  },
  {
    "latitude": 51.41802698164867,
    "longitude": 12.38172790648106
  },
  {
    "latitude": 51.41800364689496,
    "longitude": 12.381719673592615
  },
  {
    "latitude": 51.41798249394168,
    "longitude": 12.381701895501058
  },
  {
    "latitude": 51.417606994398774,
    "longitude": 12.381275695061703
  },
  {
    "latitude": 51.41759077902955,
    "longitude": 12.381252032292346
  },
  {
    "latitude": 51.41743827921383,
    "longitude": 12.380967532416905
  },
  {
    "latitude": 51.41743181154971,
    "longitude": 12.380953901309951
  },
  {
    "latitude": 51.41693691921365,
    "longitude": 12.379770707033659
  },
  {
    "latitude": 51.41671107579542,
    "longitude": 12.379428990817114
  },
  {
    "latitude": 51.41639900087073,
    "longitude": 12.379145956291849
  },
  {
    "latitude": 51.41606701242211,
    "longitude": 12.37897962438181
  },
  {
    "latitude": 51.40810934718159,
    "longitude": 12.376255241502475
  },
  {
    "latitude": 51.40642416425204,
    "longitude": 12.385234403178437
  },
  {
    "latitude": 51.40641822804938,
    "longitude": 12.385258123470695
  },
  {
    "latitude": 51.4062499277785,
    "longitude": 12.385788324128058
  },
  {
    "latitude": 51.40623658601277,
    "longitude": 12.385819419942873
  },
  {
    "latitude": 51.406218643466104,
    "longitude": 12.385843894127627
  },
  {
    "latitude": 51.40589404313641,
    "longitude": 12.38617999360503
  },
  {
    "latitude": 51.405858355519435,
    "longitude": 12.386201523767772
  },
  {
    "latitude": 51.40529711368528,
    "longitude": 12.386334331215634
  },
  {
    "latitude": 51.40506412231122,
    "longitude": 12.386472212357287
  },
  {
    "latitude": 51.40489232868806,
    "longitude": 12.386722827453816
  },
  {
    "latitude": 51.40462935111729,
    "longitude": 12.387231348657352
  },
  {
    "latitude": 51.40459619376838,
    "longitude": 12.387271368172124
  },
  {
    "latitude": 51.404212893509836,
    "longitude": 12.387540167260699
  },
  {
    "latitude": 51.4041775660027,
    "longitude": 12.387552261322819
  },
  {
    "latitude": 51.40248476913192,
    "longitude": 12.38757533735169
  },
  {
    "latitude": 51.400861839192615,
    "longitude": 12.388105714494973
  },
  {
    "latitude": 51.3964615466481,
    "longitude": 12.38997243723604
  },
  {
    "latitude": 51.39643409607723,
    "longitude": 12.38997706952685
  },
  {
    "latitude": 51.396407061032825,
    "longitude": 12.389968163453837
  },
  {
    "latitude": 51.39638299281903,
    "longitude": 12.389946559473353
  },
  {
    "latitude": 51.396364162376464,
    "longitude": 12.38991429619822
  },
  {
    "latitude": 51.39635234672462,
    "longitude": 12.389874418165999
  },
  {
    "latitude": 51.39633766345362,
    "longitude": 12.38979522380726
  },
  {
    "latitude": 51.396153852936834,
    "longitude": 12.389878320183021
  },
  {
    "latitude": 51.39612650303986,
    "longitude": 12.389883666508272
  },
  {
    "latitude": 51.39609942548397,
    "longitude": 12.389875513788907
  },
  {
    "latitude": 51.39607516633606,
    "longitude": 12.389854628646194
  },
  {
    "latitude": 51.396056006621905,
    "longitude": 12.389822974842222
  },
  {
    "latitude": 51.39604374773836,
    "longitude": 12.389783528652098
  },
  {
    "latitude": 51.39488771984897,
    "longitude": 12.383958305026972
  },
  {
    "latitude": 51.394181840760105,
    "longitude": 12.384288552197694
  },
  {
    "latitude": 51.394154407790744,
    "longitude": 12.38429429256194
  },
  {
    "latitude": 51.39412718261566,
    "longitude": 12.38428642014049
  },
  {
    "latitude": 51.3941027462829,
    "longitude": 12.384265681314517
  },
  {
    "latitude": 51.39408341528418,
    "longitude": 12.384234042138885
  },
  {
    "latitude": 51.39407102232925,
    "longitude": 12.384194502054777
  },
  {
    "latitude": 51.3929882240893,
    "longitude": 12.378789911300762
  },
  {
    "latitude": 51.392984040707105,
    "longitude": 12.37875283389427
  },
  {
    "latitude": 51.392986033131784,
    "longitude": 12.378715293182507
  },
  {
    "latitude": 51.39303352270858,
    "longitude": 12.378369611909905
  },
  {
    "latitude": 51.392976486494995,
    "longitude": 12.37817828452751
  },
  {
    "latitude": 51.39293645863359,
    "longitude": 12.378145969004073
  },
  {
    "latitude": 51.391704386403205,
    "longitude": 12.378941059834496
  },
  {
    "latitude": 51.39309618547708,
    "longitude": 12.384211247210796
  },
  {
    "latitude": 51.393102660027665,
    "longitude": 12.384250562627557
  },
  {
    "latitude": 51.39322272540115,
    "longitude": 12.385906495736814
  },
  {
    "latitude": 51.39369058019497,
    "longitude": 12.387627300105702
  },
  {
    "latitude": 51.39444074439464,
    "longitude": 12.38858129822947
  },
  {
    "latitude": 51.394459278955246,
    "longitude": 12.388613341437164
  },
  {
    "latitude": 51.3944709380578,
    "longitude": 12.388652802793528
  },
  {
    "latitude": 51.39447464551345,
    "longitude": 12.38869603951764
  },
  {
    "latitude": 51.394470058995985,
    "longitude": 12.388739060259052
  },
  {
    "latitude": 51.394457602011755,
    "longitude": 12.388777893661699
  },
  {
    "latitude": 51.39419003132463,
    "longitude": 12.38936906689399
  },
  {
    "latitude": 51.39399659499417,
    "longitude": 12.390746858105455
  },
  {
    "latitude": 51.39406233363666,
    "longitude": 12.391175673365915
  },
  {
    "latitude": 51.39464224281483,
    "longitude": 12.390803791206725
  },
  {
    "latitude": 51.3946550868813,
    "longitude": 12.390797293823313
  },
  {
    "latitude": 51.39603188637364,
    "longitude": 12.390278589794558
  },
  {
    "latitude": 51.3960602016615,
    "longitude": 12.390275287704922
  },
  {
    "latitude": 51.396087748158266,
    "longitude": 12.390286271822452
  },
  {
    "latitude": 51.39611177597631,
    "longitude": 12.390310445668971
  },
  {
    "latitude": 51.39612988657535,
    "longitude": 12.390345396113077
  },
  {
    "latitude": 51.39614027199472,
    "longitude": 12.390387634195902
  },
  {
    "latitude": 51.39616887207489,
    "longitude": 12.39059613458569
  },
  {
    "latitude": 51.396170660931574,
    "longitude": 12.390638557416079
  },
  {
    "latitude": 51.396164602289105,
    "longitude": 12.390679958806547
  },
  {
    "latitude": 51.396151227064095,
    "longitude": 12.390716711085458
  },
  {
    "latitude": 51.396131707171804,
    "longitude": 12.390745593967626
  },
  {
    "latitude": 51.39610775308007,
    "longitude": 12.390764076694577
  },
  {
    "latitude": 51.39467387261994,
    "longitude": 12.391475971127035
  },
  {
    "latitude": 51.39415698612496,
    "longitude": 12.391784639601816
  },
  {
    "latitude": 51.39422936125379,
    "longitude": 12.392265181069051
  },
  {
    "latitude": 51.39423168781417,
    "longitude": 12.392307617908022
  },
  {
    "latitude": 51.39422612531004,
    "longitude": 12.392349279117266
  },
  {
    "latitude": 51.39421316305247,
    "longitude": 12.392386500137304
  },
  {
    "latitude": 51.39419394127815,
    "longitude": 12.39241600697817
  },
  {
    "latitude": 51.39417015068928,
    "longitude": 12.392435204185727
  },
  {
    "latitude": 51.39269794990097,
    "longitude": 12.393211500206185
  },
  {
    "latitude": 51.392680007061195,
    "longitude": 12.393217800472836
  },
  {
    "latitude": 51.39135250681027,
    "longitude": 12.393460396365741
  },
  {
    "latitude": 51.391329602211385,
    "longitude": 12.393459884733492
  },
  {
    "latitude": 51.390581402513334,
    "longitude": 12.393289182485947
  },
  {
    "latitude": 51.39056172952578,
    "longitude": 12.393280980566226
  },
  {
    "latitude": 51.390196098458034,
    "longitude": 12.393055302760468
  },
  {
    "latitude": 51.38705677071578,
    "longitude": 12.394885291695049
  },
  {
    "latitude": 51.38719896409054,
    "longitude": 12.39765001051069
  },
  {
    "latitude": 51.38821730915521,
    "longitude": 12.397905015172535
  },
  {
    "latitude": 51.3882438410442,
    "longitude": 12.397918651283971
  },
  {
    "latitude": 51.3882664826655,
    "longitude": 12.39794462472467
  },
  {
    "latitude": 51.38828305580456,
    "longitude": 12.397980436879404
  },
  {
    "latitude": 51.38829196617621,
    "longitude": 12.398022642698953
  },
  {
    "latitude": 51.388292356536724,
    "longitude": 12.398067182032884
  },
  {
    "latitude": 51.38733074789391,
    "longitude": 12.408835115850566
  },
  {
    "latitude": 51.38754411020216,
    "longitude": 12.408895270632039
  },
  {
    "latitude": 51.387575215262494,
    "longitude": 12.408914020601824
  },
  {
    "latitude": 51.38759992625435,
    "longitude": 12.408949562274953
  },
  {
    "latitude": 51.38875634259366,
    "longitude": 12.411370997958766
  },
  {
    "latitude": 51.39291348710542,
    "longitude": 12.412326232048969
  },
  {
    "latitude": 51.39294038515609,
    "longitude": 12.412339537208197
  },
  {
    "latitude": 51.392963386540124,
    "longitude": 12.412365495193947
  },
  {
    "latitude": 51.39298023294625,
    "longitude": 12.412401557227444
  },
  {
    "latitude": 51.392989270060895,
    "longitude": 12.412444182457275
  },
  {
    "latitude": 51.39298961069006,
    "longitude": 12.41248918557892
  },
  {
    "latitude": 51.39233802163837,
    "longitude": 12.41960795361936
  },
  {
    "latitude": 51.39257743625896,
    "longitude": 12.420487207065063
  },
  {
    "latitude": 51.39507687084633,
    "longitude": 12.42139312020157
  },
  {
    "latitude": 51.395101150206855,
    "longitude": 12.42140809798274
  },
  {
    "latitude": 51.39512172617121,
    "longitude": 12.421433569696832
  },
  {
    "latitude": 51.39513687270979,
    "longitude": 12.421467398705932
  },
  {
    "latitude": 51.395626273547464,
    "longitude": 12.42298540074702
  },
  {
    "latitude": 51.39563136035299,
    "longitude": 12.423004434616022
  },
  {
    "latitude": 51.39600896093716,
    "longitude": 12.424757437553916
  },
  {
    "latitude": 51.396013844832986,
    "longitude": 12.424806472633406
  },
  {
    "latitude": 51.39600799285362,
    "longitude": 12.42485523614498
  },
  {
    "latitude": 51.394695690299955,
    "longitude": 12.430373344575852
  },
  {
    "latitude": 51.39468911249472,
    "longitude": 12.430395226758504
  },
  {
    "latitude": 51.39288260940656,
    "longitude": 12.435294631878978
  },
  {
    "latitude": 51.39286988375938,
    "longitude": 12.435321394743424
  },
  {
    "latitude": 51.38971997927577,
    "longitude": 12.440542494840523
  },
  {
    "latitude": 51.389708493806815,
    "longitude": 12.44055854789538
  },
  {
    "latitude": 51.38444718788142,
    "longitude": 12.446734541186972
  },
  {
    "latitude": 51.3844469611184,
    "longitude": 12.446734806491623
  },
  {
    "latitude": 51.38354686007544,
    "longitude": 12.447784305323477
  },
  {
    "latitude": 51.38352435555462,
    "longitude": 12.44780339834073
  },
  {
    "latitude": 51.3834994021916,
    "longitude": 12.44781162871267
  },
  {
    "latitude": 51.38277066182648,
    "longitude": 12.44788307536014
  },
  {
    "latitude": 51.37754763086652,
    "longitude": 12.4544637524542
  },
  {
    "latitude": 51.3775259239412,
    "longitude": 12.454483953136286
  },
  {
    "latitude": 51.377501565791015,
    "longitude": 12.4544937630378
  },
  {
    "latitude": 51.37595154217968,
    "longitude": 12.454758935783405
  },
  {
    "latitude": 51.373315567274645,
    "longitude": 12.455790693817626
  },
  {
    "latitude": 51.37112405163421,
    "longitude": 12.458315346583548
  },
  {
    "latitude": 51.37109782168393,
    "longitude": 12.458336161049965
  },
  {
    "latitude": 51.371068795562884,
    "longitude": 12.458342393611696
  },
  {
    "latitude": 51.37104005662984,
    "longitude": 12.458333382157855
  },
  {
    "latitude": 51.37101465810376,
    "longitude": 12.458310084065554
  },
  {
    "latitude": 51.3709952981854,
    "longitude": 12.458274974418991
  },
  {
    "latitude": 51.36871390184146,
    "longitude": 12.452442580687686
  },
  {
    "latitude": 51.36870323978075,
    "longitude": 12.452403256682583
  },
  {
    "latitude": 51.36870031874069,
    "longitude": 12.452360656906762
  },
  {
    "latitude": 51.36870539905039,
    "longitude": 12.452318577862515
  },
  {
    "latitude": 51.36871802798759,
    "longitude": 12.452280769668533
  },
  {
    "latitude": 51.36873707995321,
    "longitude": 12.452250601789574
  },
  {
    "latitude": 51.37028842360493,
    "longitude": 12.450439196617632
  },
  {
    "latitude": 51.36919586741573,
    "longitude": 12.447428911291048
  },
  {
    "latitude": 51.36919240707714,
    "longitude": 12.447418398124812
  },
  {
    "latitude": 51.36743981006222,
    "longitude": 12.4415134065332
  },
  {
    "latitude": 51.36743223798019,
    "longitude": 12.441474233291846
  },
  {
    "latitude": 51.36743190641633,
    "longitude": 12.441433238308942
  },
  {
    "latitude": 51.367438842254636,
    "longitude": 12.441393765564731
  },
  {
    "latitude": 51.36745247981122,
    "longitude": 12.441359034915564
  },
  {
    "latitude": 51.36747170669921,
    "longitude": 12.441331879383524
  },
  {
    "latitude": 51.369502942135846,
    "longitude": 12.43920267632705
  },
  {
    "latitude": 51.37108525785263,
    "longitude": 12.43291411594287
  },
  {
    "latitude": 51.37098233445594,
    "longitude": 12.431595668483741
  },
  {
    "latitude": 51.370984172053795,
    "longitude": 12.43154408340233
  },
  {
    "latitude": 51.37137697117668,
    "longitude": 12.428954687964165
  },
  {
    "latitude": 51.37138947383188,
    "longitude": 12.428909012655135
  },
  {
    "latitude": 51.371960692762286,
    "longitude": 12.42753640570515
  },
  {
    "latitude": 51.37182345201127,
    "longitude": 12.427206664732374
  },
  {
    "latitude": 51.36939418947449,
    "longitude": 12.424828612319276
  },
  {
    "latitude": 51.366327103260005,
    "longitude": 12.422056436992428
  },
  {
    "latitude": 51.36541241172454,
    "longitude": 12.42174251677155
  },
  {
    "latitude": 51.365296633777675,
    "longitude": 12.430018715093391
  },
  {
    "latitude": 51.36529164937303,
    "longitude": 12.430062746243637
  },
  {
    "latitude": 51.36527842012386,
    "longitude": 12.430102186426387
  },
  {
    "latitude": 51.36525823155338,
    "longitude": 12.430133203192964
  },
  {
    "latitude": 51.36523304522576,
    "longitude": 12.430152782619228
  },
  {
    "latitude": 51.365205308630216,
    "longitude": 12.430159022156639
  },
  {
    "latitude": 51.35896577378824,
    "longitude": 12.4299936197165
  },
  {
    "latitude": 51.35764941605982,
    "longitude": 12.430526422524167
  },
  {
    "latitude": 51.355563843047186,
    "longitude": 12.432978761322705
  },
  {
    "latitude": 51.355236865556456,
    "longitude": 12.43381651411854
  },
  {
    "latitude": 51.35877465289262,
    "longitude": 12.4409800216962
  },
  {
    "latitude": 51.35878375899779,
    "longitude": 12.441002493960976
  },
  {
    "latitude": 51.35954222585349,
    "longitude": 12.443323740238597
  },
  {
    "latitude": 51.36078582223605,
    "longitude": 12.446210135274336
  },
  {
    "latitude": 51.36079721404698,
    "longitude": 12.446246932868206
  },
  {
    "latitude": 51.36080161861493,
    "longitude": 12.446287376232707
  },
  {
    "latitude": 51.3607986756742,
    "longitude": 12.446328156955659
  },
  {
    "latitude": 51.360788625959174,
    "longitude": 12.44636593897502
  },
  {
    "latitude": 51.36077229147043,
    "longitude": 12.446397631572369
  },
  {
    "latitude": 51.359206847782694,
    "longitude": 12.44867399452137
  },
  {
    "latitude": 51.357985000444714,
    "longitude": 12.451319698431123
  },
  {
    "latitude": 51.36341774892238,
    "longitude": 12.4571389922374
  },
  {
    "latitude": 51.3634378756768,
    "longitude": 12.457168555655773
  },
  {
    "latitude": 51.363451504585974,
    "longitude": 12.457206419657066
  },
  {
    "latitude": 51.36345737369277,
    "longitude": 12.457249078253609
  },
  {
    "latitude": 51.36356577377637,
    "longitude": 12.459969083562466
  },
  {
    "latitude": 51.363558665325364,
    "longitude": 12.460034832695628
  },
  {
    "latitude": 51.36190490206432,
    "longitude": 12.46618623615827
  },
  {
    "latitude": 51.36462299654314,
    "longitude": 12.469780530056857
  },
  {
    "latitude": 51.36532070545056,
    "longitude": 12.470703055277221
  },
  {
    "latitude": 51.36638390295888,
    "longitude": 12.469384708400874
  },
  {
    "latitude": 51.36640893667571,
    "longitude": 12.46936282907194
  },
  {
    "latitude": 51.366437002357365,
    "longitude": 12.469354592019933
  },
  {
    "latitude": 51.36646526948192,
    "longitude": 12.469360827985478
  },
  {
    "latitude": 51.366490887284336,
    "longitude": 12.469380908096614
  },
  {
    "latitude": 51.36651127208579,
    "longitude": 12.46941280725436
  },
  {
    "latitude": 51.36681888254947,
    "longitude": 12.470078003269695
  },
  {
    "latitude": 51.36774010474379,
    "longitude": 12.46897802090371
  },
  {
    "latitude": 51.36776552964898,
    "longitude": 12.468956795050989
  },
  {
    "latitude": 51.36779384638694,
    "longitude": 12.46894945231411
  },
  {
    "latitude": 51.36782216849819,
    "longitude": 12.46895674111397
  },
  {
    "latitude": 51.36784760928379,
    "longitude": 12.468977918589147
  },
  {
    "latitude": 51.36786757552159,
    "longitude": 12.469010826133397
  },
  {
    "latitude": 51.36812047591845,
    "longitude": 12.46958952664172
  },
  {
    "latitude": 51.36813313937502,
    "longitude": 12.469631940777038
  },
  {
    "latitude": 51.3681365504025,
    "longitude": 12.46967861568092
  },
  {
    "latitude": 51.36813034346414,
    "longitude": 12.469724549486996
  },
  {
    "latitude": 51.36811518354899,
    "longitude": 12.469764819687079
  },
  {
    "latitude": 51.361629513572936,
    "longitude": 12.48191766204344
  },
  {
    "latitude": 51.357670246508796,
    "longitude": 12.489406101958867
  },
  {
    "latitude": 51.357650538944505,
    "longitude": 12.489433860574708
  },
  {
    "latitude": 51.357626646335994,
    "longitude": 12.489451326438555
  },
  {
    "latitude": 51.35760061196291,
    "longitude": 12.489457005953101
  },
  {
    "latitude": 51.357574661972606,
    "longitude": 12.489450413442205
  },
  {
    "latitude": 51.35640371418212,
    "longitude": 12.488862710908837
  },
  {
    "latitude": 51.35479159982355,
    "longitude": 12.488862705875452
  },
  {
    "latitude": 51.354759858024835,
    "longitude": 12.488853453412748
  },
  {
    "latitude": 51.354732209299335,
    "longitude": 12.488826889284798
  },
  {
    "latitude": 51.354712218932896,
    "longitude": 12.488786438911635
  },
  {
    "latitude": 51.353086221590196,
    "longitude": 12.483890545276507
  },
  {
    "latitude": 51.353079610137016,
    "longitude": 12.483864934008835
  },
  {
    "latitude": 51.35240801127582,
    "longitude": 12.480327440159957
  },
  {
    "latitude": 51.35240639821325,
    "longitude": 12.480317733576216
  },
  {
    "latitude": 51.35140281073771,
    "longitude": 12.473297775526097
  },
  {
    "latitude": 51.35129602814399,
    "longitude": 12.473159586171404
  },
  {
    "latitude": 51.35129255958199,
    "longitude": 12.473154859673025
  },
  {
    "latitude": 51.3510864598604,
    "longitude": 12.472859259599428
  },
  {
    "latitude": 51.35106781206062,
    "longitude": 12.472821782476512
  },
  {
    "latitude": 51.35105792070201,
    "longitude": 12.472776595543726
  },
  {
    "latitude": 51.35060416668018,
    "longitude": 12.468523285931271
  },
  {
    "latitude": 51.35027732955681,
    "longitude": 12.467188844809474
  },
  {
    "latitude": 51.34772112825844,
    "longitude": 12.467351344712105
  },
  {
    "latitude": 51.34593413604032,
    "longitude": 12.47002628349616
  },
  {
    "latitude": 51.345781839821576,
    "longitude": 12.47310390761825
  },
  {
    "latitude": 51.34565261413998,
    "longitude": 12.476495955833224
  },
  {
    "latitude": 51.34581418040123,
    "longitude": 12.479211165608161
  },
  {
    "latitude": 51.346091327081446,
    "longitude": 12.481978042242934
  },
  {
    "latitude": 51.346091937237304,
    "longitude": 12.481985324968429
  },
  {
    "latitude": 51.34619123729337,
    "longitude": 12.483456627804275
  },
  {
    "latitude": 51.346304537539275,
    "longitude": 12.485135731262973
  },
  {
    "latitude": 51.34640443752766,
    "longitude": 12.486616432932214
  },
  {
    "latitude": 51.34640468488857,
    "longitude": 12.486620696220303
  },
  {
    "latitude": 51.346499985030384,
    "longitude": 12.488581500048836
  },
  {
    "latitude": 51.346500192436125,
    "longitude": 12.488587276050437
  },
  {
    "latitude": 51.34653986064139,
    "longitude": 12.490293702192757
  },
  {
    "latitude": 51.34696767292847,
    "longitude": 12.493139814994416
  },
  {
    "latitude": 51.34696784150421,
    "longitude": 12.49314095709887
  },
  {
    "latitude": 51.34791938504266,
    "longitude": 12.499709502323437
  },
  {
    "latitude": 51.349315397100234,
    "longitude": 12.503148148098887
  },
  {
    "latitude": 51.34932647833545,
    "longitude": 12.503187240904875
  },
  {
    "latitude": 51.34932982521165,
    "longitude": 12.503229818093759
  },
  {
    "latitude": 51.349325138385055,
    "longitude": 12.503272071679975
  },
  {
    "latitude": 51.34931283712221,
    "longitude": 12.503310222657596
  },
  {
    "latitude": 51.34929402156442,
    "longitude": 12.50334085894208
  },
  {
    "latitude": 51.34927037453189,
    "longitude": 12.50336124053661
  },
  {
    "latitude": 51.34368907483044,
    "longitude": 12.506562223743591
  },
  {
    "latitude": 51.343459478438966,
    "longitude": 12.50669392101414
  },
  {
    "latitude": 51.343226965735944,
    "longitude": 12.506827227589806
  },
  {
    "latitude": 51.343218383748386,
    "longitude": 12.506831388460865
  },
  {
    "latitude": 51.33744728134871,
    "longitude": 12.509133771783445
  },
  {
    "latitude": 51.33741734362806,
    "longitude": 12.509137458127217
  },
  {
    "latitude": 51.33738831671927,
    "longitude": 12.50912519138913
  },
  {
    "latitude": 51.337363442056756,
    "longitude": 12.509098341389482
  },
  {
    "latitude": 51.33734549752369,
    "longitude": 12.50905990655716
  },
  {
    "latitude": 51.33733648680926,
    "longitude": 12.509014178892265
  },
  {
    "latitude": 51.33695918553536,
    "longitude": 12.504643140276213
  },
  {
    "latitude": 51.33610857487671,
    "longitude": 12.497411153607757
  },
  {
    "latitude": 51.335490455871536,
    "longitude": 12.4932367031188
  },
  {
    "latitude": 51.33549018811505,
    "longitude": 12.49323483967829
  },
  {
    "latitude": 51.33497798985061,
    "longitude": 12.489558452787966
  },
  {
    "latitude": 51.334942405293425,
    "longitude": 12.48930318076602
  },
  {
    "latitude": 51.334585453276034,
    "longitude": 12.486877316804636
  },
  {
    "latitude": 51.333488137985384,
    "longitude": 12.483308303289995
  },
  {
    "latitude": 51.3334866666847,
    "longitude": 12.483303274776114
  },
  {
    "latitude": 51.33276525430065,
    "longitude": 12.480707910139843
  },
  {
    "latitude": 51.33234055229828,
    "longitude": 12.480449981336491
  },
  {
    "latitude": 51.330607310720154,
    "longitude": 12.480663405880959
  },
  {
    "latitude": 51.33060012184014,
    "longitude": 12.48066383003556
  },
  {
    "latitude": 51.323383222253284,
    "longitude": 12.480628207493325
  },
  {
    "latitude": 51.32336058101624,
    "longitude": 12.480623464795748
  },
  {
    "latitude": 51.323339420008175,
    "longitude": 12.480609766424358
  },
  {
    "latitude": 51.321735421547125,
    "longitude": 12.47916866358786
  },
  {
    "latitude": 51.32172465949989,
    "longitude": 12.479157297586557
  },
  {
    "latitude": 51.32005346148635,
    "longitude": 12.47710249610473
  },
  {
    "latitude": 51.32005293753407,
    "longitude": 12.477101846976252
  },
  {
    "latitude": 51.317576706772215,
    "longitude": 12.474010845124141
  },
  {
    "latitude": 51.314766429551035,
    "longitude": 12.471285024951744
  },
  {
    "latitude": 51.31474917128066,
    "longitude": 12.471263258441159
  },
  {
    "latitude": 51.312937073851735,
    "longitude": 12.468335958787067
  },
  {
    "latitude": 51.312919284017404,
    "longitude": 12.468294829659872
  },
  {
    "latitude": 51.312911421515466,
    "longitude": 12.468246456372066
  },
  {
    "latitude": 51.31280782834137,
    "longitude": 12.466147904757179
  },
  {
    "latitude": 51.31240104600423,
    "longitude": 12.465262749926232
  },
  {
    "latitude": 51.31032638485768,
    "longitude": 12.464282344094423
  },
  {
    "latitude": 51.30766791242961,
    "longitude": 12.464562049373567
  },
  {
    "latitude": 51.30765296521665,
    "longitude": 12.46456163355852
  },
  {
    "latitude": 51.30325823013532,
    "longitude": 12.463853136386419
  },
  {
    "latitude": 51.29511227244784,
    "longitude": 12.464015035213826
  },
  {
    "latitude": 51.288681065613495,
    "longitude": 12.46500217868503
  },
  {
    "latitude": 51.28693671231313,
    "longitude": 12.466650872215958
  },
  {
    "latitude": 51.286933518881284,
    "longitude": 12.466653751631432
  },
  {
    "latitude": 51.28311235441463,
    "longitude": 12.469936472129982
  },
  {
    "latitude": 51.28259509871471,
    "longitude": 12.471924997310733
  },
  {
    "latitude": 51.282577532459406,
    "longitude": 12.471968300749749
  },
  {
    "latitude": 51.282551488756,
    "longitude": 12.471998881358376
  },
  {
    "latitude": 51.28252034193335,
    "longitude": 12.472012777186047
  },
  {
    "latitude": 51.28149965355665,
    "longitude": 12.472162693335415
  },
  {
    "latitude": 51.2815198808406,
    "longitude": 12.473500964335027
  },
  {
    "latitude": 51.28203994199852,
    "longitude": 12.475818260823932
  },
  {
    "latitude": 51.28346168314281,
    "longitude": 12.47880609309466
  },
  {
    "latitude": 51.283466725227115,
    "longitude": 12.478817862787913
  },
  {
    "latitude": 51.28443652676557,
    "longitude": 12.481342865570783
  },
  {
    "latitude": 51.28444555022742,
    "longitude": 12.481374379079366
  },
  {
    "latitude": 51.28444956696018,
    "longitude": 12.481408424934788
  },
  {
    "latitude": 51.28459585626985,
    "longitude": 12.485006046425289
  },
  {
    "latitude": 51.284928511003265,
    "longitude": 12.488848106223008
  },
  {
    "latitude": 51.284926098932445,
    "longitude": 12.488905923762823
  },
  {
    "latitude": 51.283640896308036,
    "longitude": 12.496308636409593
  },
  {
    "latitude": 51.28362972459731,
    "longitude": 12.496348275162376
  },
  {
    "latitude": 51.28361161456066,
    "longitude": 12.496380750081437
  },
  {
    "latitude": 51.28358823201558,
    "longitude": 12.496403073731031
  },
  {
    "latitude": 51.28356172797492,
    "longitude": 12.496413192556544
  },
  {
    "latitude": 51.28353454066977,
    "longitude": 12.49641017573776
  },
  {
    "latitude": 51.28350917106422,
    "longitude": 12.496394300807248
  },
  {
    "latitude": 51.27639617827927,
    "longitude": 12.489807788786637
  },
  {
    "latitude": 51.2763885667687,
    "longitude": 12.489799896237466
  },
  {
    "latitude": 51.27383836974192,
    "longitude": 12.486853093465015
  },
  {
    "latitude": 51.273832192451266,
    "longitude": 12.486843268434086
  },
  {
    "latitude": 51.2738253219387,
    "longitude": 12.48683469286329
  },
  {
    "latitude": 51.273822299564,
    "longitude": 12.486827533599365
  },
  {
    "latitude": 51.27381846741774,
    "longitude": 12.486821438618136
  },
  {
    "latitude": 51.27381449688679,
    "longitude": 12.486809051202162
  },
  {
    "latitude": 51.273809624835735,
    "longitude": 12.486797510569776
  },
  {
    "latitude": 51.27380813805889,
    "longitude": 12.486789212717426
  },
  {
    "latitude": 51.27380567495357,
    "longitude": 12.486781528163393
  },
  {
    "latitude": 51.273804299802364,
    "longitude": 12.486767790925988
  },
  {
    "latitude": 51.27380190312345,
    "longitude": 12.486754414895262
  },
  {
    "latitude": 51.27380209747407,
    "longitude": 12.486745790695846
  },
  {
    "latitude": 51.27380124437414,
    "longitude": 12.486737268781535
  },
  {
    "latitude": 51.27380259920405,
    "longitude": 12.486723526420887
  },
  {
    "latitude": 51.2738029125953,
    "longitude": 12.486709624337195
  },
  {
    "latitude": 51.27390339233683,
    "longitude": 12.485889896377284
  },
  {
    "latitude": 51.26963088112386,
    "longitude": 12.486635788985314
  },
  {
    "latitude": 51.26960702006436,
    "longitude": 12.486634870750418
  },
  {
    "latitude": 51.269584152441304,
    "longitude": 12.48662397069386
  },
  {
    "latitude": 51.26956389172842,
    "longitude": 12.486603857907426
  },
  {
    "latitude": 51.26615249595812,
    "longitude": 12.482114455715198
  },
  {
    "latitude": 51.26613552605379,
    "longitude": 12.482084844090783
  },
  {
    "latitude": 51.2644733286507,
    "longitude": 12.478210247668663
  },
  {
    "latitude": 51.26446567426468,
    "longitude": 12.478188583416957
  },
  {
    "latitude": 51.26321717630887,
    "longitude": 12.473803489819014
  },
  {
    "latitude": 51.263210847786915,
    "longitude": 12.473772060441181
  },
  {
    "latitude": 51.262441349028535,
    "longitude": 12.467565772008346
  },
  {
    "latitude": 51.26243985234922,
    "longitude": 12.467528240624123
  },
  {
    "latitude": 51.26244453686612,
    "longitude": 12.467491382142056
  },
  {
    "latitude": 51.26245507965668,
    "longitude": 12.467457738000435
  },
  {
    "latitude": 51.26343507806091,
    "longitude": 12.465149239871796
  },
  {
    "latitude": 51.263440697794856,
    "longitude": 12.465137377718259
  },
  {
    "latitude": 51.266656293040626,
    "longitude": 12.459035379937472
  },
  {
    "latitude": 51.26665978717158,
    "longitude": 12.459029129030005
  },
  {
    "latitude": 51.26809688511805,
    "longitude": 12.456604629197898
  },
  {
    "latitude": 51.268112472067,
    "longitude": 12.456583696573166
  },
  {
    "latitude": 51.26933917078302,
    "longitude": 12.455284394669123
  },
  {
    "latitude": 51.26936554791607,
    "longitude": 12.455265380379094
  },
  {
    "latitude": 51.27290734630815,
    "longitude": 12.453745770324948
  },
  {
    "latitude": 51.27291487557046,
    "longitude": 12.45374308646122
  },
  {
    "latitude": 51.276412774605376,
    "longitude": 12.452745375955606
  },
  {
    "latitude": 51.27644147225705,
    "longitude": 12.45274461426219
  },
  {
    "latitude": 51.27800697273654,
    "longitude": 12.453105909577449
  },
  {
    "latitude": 51.2780158695058,
    "longitude": 12.453108699912232
  },
  {
    "latitude": 51.27962283226561,
    "longitude": 12.453748517756422
  },
  {
    "latitude": 51.28129072849881,
    "longitude": 12.45315934375781
  },
  {
    "latitude": 51.28145940221652,
    "longitude": 12.453093711273533
  },
  {
    "latitude": 51.280731204031504,
    "longitude": 12.44789453360001
  },
  {
    "latitude": 51.28072950936808,
    "longitude": 12.44784872082165
  },
  {
    "latitude": 51.280736985780656,
    "longitude": 12.447804403804675
  },
  {
    "latitude": 51.2807528661217,
    "longitude": 12.447766129241197
  },
  {
    "latitude": 51.28077552130414,
    "longitude": 12.44773782390892
  },
  {
    "latitude": 51.28080262689881,
    "longitude": 12.44772239180312
  },
  {
    "latitude": 51.28285902831739,
    "longitude": 12.44711856610715
  },
  {
    "latitude": 51.282768028029444,
    "longitude": 12.443786136500757
  },
  {
    "latitude": 51.28276879829476,
    "longitude": 12.44376017621995
  },
  {
    "latitude": 51.282971997784344,
    "longitude": 12.441428480597168
  },
  {
    "latitude": 51.28297469670107,
    "longitude": 12.4414083018646
  },
  {
    "latitude": 51.28432429394566,
    "longitude": 12.433983914385117
  },
  {
    "latitude": 51.284331540823125,
    "longitude": 12.433955695787775
  },
  {
    "latitude": 51.284991739718244,
    "longitude": 12.432006798060463
  },
  {
    "latitude": 51.2850108237684,
    "longitude": 12.431968198554069
  },
  {
    "latitude": 51.28503696522253,
    "longitude": 12.431942154593495
  },
  {
    "latitude": 51.285067087992374,
    "longitude": 12.431931730801757
  },
  {
    "latitude": 51.285698000901526,
    "longitude": 12.43189013416276
  },
  {
    "latitude": 51.285918871947054,
    "longitude": 12.429783076521026
  },
  {
    "latitude": 51.285926568308746,
    "longitude": 12.429744436715193
  },
  {
    "latitude": 51.28594074319566,
    "longitude": 12.429710781005559
  },
  {
    "latitude": 51.28599612923018,
    "longitude": 12.42961275494189
  },
  {
    "latitude": 51.28552169319754,
    "longitude": 12.425007735229466
  },
  {
    "latitude": 51.28483915935422,
    "longitude": 12.418719946291931
  },
  {
    "latitude": 51.28483811119116,
    "longitude": 12.418706584042532
  },
  {
    "latitude": 51.28468053548329,
    "longitude": 12.415468791285196
  },
  {
    "latitude": 51.284602399806715,
    "longitude": 12.41546879104777
  },
  {
    "latitude": 51.28457410013337,
    "longitude": 12.415461499224989
  },
  {
    "latitude": 51.28454868068182,
    "longitude": 12.415440366095131
  },
  {
    "latitude": 51.28452872854127,
    "longitude": 12.415407542485632
  },
  {
    "latitude": 51.284516274313326,
    "longitude": 12.415366369037027
  },
  {
    "latitude": 51.28451258543385,
    "longitude": 12.415321036151449
  },
  {
    "latitude": 51.28453837893836,
    "longitude": 12.41400096923931
  },
  {
    "latitude": 51.28142908682335,
    "longitude": 12.41436539573509
  },
  {
    "latitude": 51.28140008590531,
    "longitude": 12.414361252186165
  },
  {
    "latitude": 51.28137343840626,
    "longitude": 12.414342539952635
  },
  {
    "latitude": 51.28135194232549,
    "longitude": 12.414311223772758
  },
  {
    "latitude": 51.28133785462437,
    "longitude": 12.414270591797662
  },
  {
    "latitude": 51.28133265447309,
    "longitude": 12.414224910308569
  },
  {
    "latitude": 51.281286254447664,
    "longitude": 12.40983521888715
  },
  {
    "latitude": 51.281289500041076,
    "longitude": 12.409794565187989
  },
  {
    "latitude": 51.28129983042895,
    "longitude": 12.409757039460933
  },
  {
    "latitude": 51.28131640030827,
    "longitude": 12.409725711643478
  },
  {
    "latitude": 51.28133785427177,
    "longitude": 12.409703144636783
  },
  {
    "latitude": 51.28136243699565,
    "longitude": 12.409691184667269
  },
  {
    "latitude": 51.28230438645161,
    "longitude": 12.409460120525551
  },
  {
    "latitude": 51.28221822851257,
    "longitude": 12.406339003981385
  },
  {
    "latitude": 51.28222523157361,
    "longitude": 12.406276914838385
  },
  {
    "latitude": 51.285311525736745,
    "longitude": 12.394631031533256
  },
  {
    "latitude": 51.28532617046332,
    "longitude": 12.394593366000024
  },
  {
    "latitude": 51.2853473320052,
    "longitude": 12.394564637687223
  },
  {
    "latitude": 51.286388530938744,
    "longitude": 12.393546635861114
  },
  {
    "latitude": 51.286392078139016,
    "longitude": 12.393543342987929
  },
  {
    "latitude": 51.287265177276225,
    "longitude": 12.392774841252661
  },
  {
    "latitude": 51.28729480985981,
    "longitude": 12.39275869673405
  },
  {
    "latitude": 51.2888372226035,
    "longitude": 12.392376680152712
  },
  {
    "latitude": 51.28945154125757,
    "longitude": 12.39186970014075
  },
  {
    "latitude": 51.28945154106057,
    "longitude": 12.391401417374698
  },
  {
    "latitude": 51.28941360704877,
    "longitude": 12.39061691939817
  },
  {
    "latitude": 51.28941446234271,
    "longitude": 12.390599929692604
  },
  {
    "latitude": 51.28941450737195,
    "longitude": 12.39058288548274
  },
  {
    "latitude": 51.289803827822986,
    "longitude": 12.386766239576525
  }
]
